2022-05-05 08:46:36,113 INFO    Thread-1593 (_run_job):22946 [wandb_setup.py:_flush():76] Loading settings from /Users/korteksickiwijko/.config/wandb/settings
2022-05-05 08:46:36,113 INFO    Thread-1593 (_run_job):22946 [wandb_setup.py:_flush():76] Loading settings from wandb/settings
2022-05-05 08:46:36,113 INFO    Thread-1593 (_run_job):22946 [wandb_setup.py:_flush():76] Loading settings from environment variables: {'project': 'ai-and-robotics', 'entity': 'rjirkovsky', 'root_dir': '/Users/korteksickiwijko/University/ai_and_robotics/product/tabata_model/tabata_model', 'run_id': 'f9g4ozab', 'sweep_param_path': '/Users/korteksickiwijko/University/ai_and_robotics/product/tabata_model/tabata_model/wandb/sweep-yqkfasiw/config-f9g4ozab.yaml', 'sweep_id': 'yqkfasiw'}
2022-05-05 08:46:36,113 INFO    Thread-1593 (_run_job):22946 [wandb_setup.py:_flush():76] Inferring run settings from compute environment: {'program': '<python with no main file>'}
2022-05-05 08:46:36,113 INFO    Thread-1593 (_run_job):22946 [wandb_init.py:_log_setup():428] Logging user logs to /Users/korteksickiwijko/University/ai_and_robotics/product/tabata_model/tabata_model/wandb/run-20220505_084636-f9g4ozab/logs/debug.log
2022-05-05 08:46:36,113 INFO    Thread-1593 (_run_job):22946 [wandb_init.py:_log_setup():429] Logging internal logs to /Users/korteksickiwijko/University/ai_and_robotics/product/tabata_model/tabata_model/wandb/run-20220505_084636-f9g4ozab/logs/debug-internal.log
2022-05-05 08:46:36,114 INFO    Thread-1593 (_run_job):22946 [wandb_init.py:_jupyter_setup():378] configuring jupyter hooks <wandb.sdk.wandb_init._WandbInit object at 0x1609821d0>
2022-05-05 08:46:36,114 INFO    Thread-1593 (_run_job):22946 [wandb_init.py:init():462] calling init triggers
2022-05-05 08:46:36,114 INFO    Thread-1593 (_run_job):22946 [wandb_init.py:init():465] wandb.init called with sweep_config: {'epochs': 150, 'learning_rate': 0.001, 'optimizer': 'adam'}
config: {}
2022-05-05 08:46:36,114 INFO    Thread-1593 (_run_job):22946 [wandb_init.py:init():515] starting backend
2022-05-05 08:46:36,114 INFO    Thread-1593 (_run_job):22946 [backend.py:_multiprocessing_setup():97] multiprocessing start_methods=spawn,fork,forkserver, using: spawn
2022-05-05 08:46:36,119 INFO    Thread-1593 (_run_job):22946 [backend.py:ensure_launched():217] starting backend process...
2022-05-05 08:46:36,133 INFO    Thread-1593 (_run_job):22946 [backend.py:ensure_launched():222] started backend process with pid: 26338
2022-05-05 08:46:36,145 INFO    Thread-1593 (_run_job):22946 [wandb_init.py:init():525] backend started and connected
2022-05-05 08:46:36,200 INFO    Thread-1593 (_run_job):22946 [wandb_run.py:_label_probe_notebook():1089] probe notebook
2022-05-05 08:46:36,201 INFO    Thread-1593 (_run_job):22946 [wandb_run.py:_label_probe_notebook():1099] Unable to probe notebook: 'NoneType' object has no attribute 'get'
2022-05-05 08:46:36,201 INFO    Thread-1593 (_run_job):22946 [wandb_init.py:init():596] updated telemetry
2022-05-05 08:46:36,202 INFO    Thread-1593 (_run_job):22946 [wandb_init.py:init():627] communicating run to backend with 30 second timeout
2022-05-05 08:46:37,891 INFO    Thread-1593 (_run_job):22946 [wandb_run.py:_on_init():1924] communicating current version
2022-05-05 08:46:38,215 INFO    Thread-1593 (_run_job):22946 [wandb_run.py:_on_init():1928] got version response 
2022-05-05 08:46:38,215 INFO    Thread-1593 (_run_job):22946 [wandb_init.py:init():662] starting run threads in backend
2022-05-05 08:46:42,597 INFO    Thread-1593 (_run_job):22946 [wandb_run.py:_config_callback():1136] config_cb None None {'epochs': 150, 'learning_rate': 0.001, 'optimizer': 'adam'}
2022-05-05 08:46:42,613 INFO    Thread-1593 (_run_job):22946 [wandb_run.py:_console_start():1898] atexit reg
2022-05-05 08:46:42,614 INFO    Thread-1593 (_run_job):22946 [wandb_run.py:_redirect():1771] redirect: SettingsConsole.WRAP
2022-05-05 08:46:42,614 INFO    Thread-1593 (_run_job):22946 [wandb_run.py:_redirect():1808] Wrapping output streams.
2022-05-05 08:46:42,615 INFO    Thread-1593 (_run_job):22946 [wandb_run.py:_redirect():1832] Redirects installed.
2022-05-05 08:46:42,615 INFO    Thread-1593 (_run_job):22946 [wandb_init.py:init():688] run started, returning control to user process
2022-05-05 08:46:50,369 INFO    Thread-1593 (_run_job):22946 [wandb_run.py:_finish():1685] finishing run rjirkovsky/ai-and-robotics/f9g4ozab
2022-05-05 08:46:50,369 INFO    Thread-1593 (_run_job):22946 [jupyter.py:save_history():435] not saving jupyter history
2022-05-05 08:46:50,370 INFO    Thread-1593 (_run_job):22946 [jupyter.py:save_ipynb():377] not saving jupyter notebook
2022-05-05 08:46:50,370 INFO    Thread-1593 (_run_job):22946 [wandb_init.py:_jupyter_teardown():360] cleaning up jupyter logic
2022-05-05 08:46:50,370 INFO    Thread-1593 (_run_job):22946 [wandb_run.py:_atexit_cleanup():1867] got exitcode: 0
2022-05-05 08:46:50,372 INFO    Thread-1593 (_run_job):22946 [wandb_run.py:_restore():1839] restore
2022-05-05 08:46:51,126 INFO    Thread-1593 (_run_job):22946 [wandb_run.py:_on_finish():1996] got exit ret: file_counts {
  wandb_count: 1
  media_count: 1
  other_count: 1
}
pusher_stats {
  uploaded_bytes: 40885
  total_bytes: 40885
}

2022-05-05 08:46:52,330 INFO    Thread-1593 (_run_job):22946 [wandb_run.py:_on_finish():1996] got exit ret: file_counts {
  wandb_count: 1
  media_count: 1
  other_count: 1
}
pusher_stats {
  uploaded_bytes: 40885
  total_bytes: 40885
}

2022-05-05 08:46:52,938 INFO    Thread-1593 (_run_job):22946 [wandb_run.py:_on_finish():1996] got exit ret: file_counts {
  wandb_count: 5
  media_count: 1
  other_count: 1
}
pusher_stats {
  uploaded_bytes: 40885
  total_bytes: 73226
}

2022-05-05 08:46:53,046 INFO    Thread-1593 (_run_job):22946 [wandb_run.py:_on_finish():1996] got exit ret: file_counts {
  wandb_count: 5
  media_count: 1
  other_count: 1
}
pusher_stats {
  uploaded_bytes: 1013
  total_bytes: 73226
}

2022-05-05 08:46:53,153 INFO    Thread-1593 (_run_job):22946 [wandb_run.py:_on_finish():1996] got exit ret: file_counts {
  wandb_count: 5
  media_count: 1
  other_count: 1
}
pusher_stats {
  uploaded_bytes: 1013
  total_bytes: 73226
}

2022-05-05 08:46:53,256 INFO    Thread-1593 (_run_job):22946 [wandb_run.py:_on_finish():1996] got exit ret: file_counts {
  wandb_count: 5
  media_count: 1
  other_count: 1
}
pusher_stats {
  uploaded_bytes: 1013
  total_bytes: 73226
}

2022-05-05 08:46:53,359 INFO    Thread-1593 (_run_job):22946 [wandb_run.py:_on_finish():1996] got exit ret: file_counts {
  wandb_count: 5
  media_count: 1
  other_count: 1
}
pusher_stats {
  uploaded_bytes: 1013
  total_bytes: 73226
}

2022-05-05 08:46:53,464 INFO    Thread-1593 (_run_job):22946 [wandb_run.py:_on_finish():1996] got exit ret: file_counts {
  wandb_count: 5
  media_count: 1
  other_count: 1
}
pusher_stats {
  uploaded_bytes: 73226
  total_bytes: 73226
}

2022-05-05 08:46:53,572 INFO    Thread-1593 (_run_job):22946 [wandb_run.py:_on_finish():1996] got exit ret: file_counts {
  wandb_count: 5
  media_count: 1
  other_count: 1
}
pusher_stats {
  uploaded_bytes: 73226
  total_bytes: 73226
}

2022-05-05 08:46:53,679 INFO    Thread-1593 (_run_job):22946 [wandb_run.py:_on_finish():1996] got exit ret: file_counts {
  wandb_count: 5
  media_count: 1
  other_count: 1
}
pusher_stats {
  uploaded_bytes: 73226
  total_bytes: 73226
}

2022-05-05 08:46:53,785 INFO    Thread-1593 (_run_job):22946 [wandb_run.py:_on_finish():1996] got exit ret: file_counts {
  wandb_count: 5
  media_count: 1
  other_count: 1
}
pusher_stats {
  uploaded_bytes: 73226
  total_bytes: 73226
}

2022-05-05 08:46:53,891 INFO    Thread-1593 (_run_job):22946 [wandb_run.py:_on_finish():1996] got exit ret: file_counts {
  wandb_count: 5
  media_count: 1
  other_count: 1
}
pusher_stats {
  uploaded_bytes: 73226
  total_bytes: 73226
}

2022-05-05 08:46:53,998 INFO    Thread-1593 (_run_job):22946 [wandb_run.py:_on_finish():1996] got exit ret: file_counts {
  wandb_count: 5
  media_count: 1
  other_count: 1
}
pusher_stats {
  uploaded_bytes: 73226
  total_bytes: 73226
}

2022-05-05 08:46:54,103 INFO    Thread-1593 (_run_job):22946 [wandb_run.py:_on_finish():1996] got exit ret: file_counts {
  wandb_count: 5
  media_count: 1
  other_count: 1
}
pusher_stats {
  uploaded_bytes: 73226
  total_bytes: 73226
}

2022-05-05 08:46:54,397 INFO    Thread-1593 (_run_job):22946 [wandb_run.py:_on_finish():1996] got exit ret: file_counts {
  wandb_count: 5
  media_count: 1
  other_count: 1
}
pusher_stats {
  uploaded_bytes: 73226
  total_bytes: 73226
}

2022-05-05 08:46:55,056 INFO    Thread-1593 (_run_job):22946 [wandb_run.py:_on_finish():1996] got exit ret: done: true
exit_result {
}
file_counts {
  wandb_count: 5
  media_count: 1
  other_count: 1
}
pusher_stats {
  uploaded_bytes: 73226
  total_bytes: 73226
}
local_info {
}

2022-05-05 08:46:56,637 INFO    Thread-1593 (_run_job):22946 [wandb_run.py:_footer_history_summary_info():3104] rendering history
2022-05-05 08:46:56,638 INFO    Thread-1593 (_run_job):22946 [wandb_run.py:_footer_history_summary_info():3136] rendering summary
2022-05-05 08:46:56,645 INFO    Thread-1593 (_run_job):22946 [wandb_run.py:_footer_sync_info():3060] logging synced files
