2022-05-05 07:58:28,410 INFO    Thread-917 (_run_job):22946 [wandb_setup.py:_flush():76] Loading settings from /Users/korteksickiwijko/.config/wandb/settings
2022-05-05 07:58:28,411 INFO    Thread-917 (_run_job):22946 [wandb_setup.py:_flush():76] Loading settings from wandb/settings
2022-05-05 07:58:28,411 INFO    Thread-917 (_run_job):22946 [wandb_setup.py:_flush():76] Loading settings from environment variables: {'project': 'ai-and-robotics', 'entity': 'rjirkovsky', 'root_dir': '/Users/korteksickiwijko/University/ai_and_robotics/product/tabata_model/tabata_model', 'run_id': 'dghxceho', 'sweep_param_path': '/Users/korteksickiwijko/University/ai_and_robotics/product/tabata_model/tabata_model/wandb/sweep-zbkn1ibg/config-dghxceho.yaml', 'sweep_id': 'zbkn1ibg'}
2022-05-05 07:58:28,411 INFO    Thread-917 (_run_job):22946 [wandb_setup.py:_flush():76] Inferring run settings from compute environment: {'program': '<python with no main file>'}
2022-05-05 07:58:28,411 INFO    Thread-917 (_run_job):22946 [wandb_init.py:_log_setup():428] Logging user logs to /Users/korteksickiwijko/University/ai_and_robotics/product/tabata_model/tabata_model/wandb/run-20220505_075828-dghxceho/logs/debug.log
2022-05-05 07:58:28,411 INFO    Thread-917 (_run_job):22946 [wandb_init.py:_log_setup():429] Logging internal logs to /Users/korteksickiwijko/University/ai_and_robotics/product/tabata_model/tabata_model/wandb/run-20220505_075828-dghxceho/logs/debug-internal.log
2022-05-05 07:58:28,411 INFO    Thread-917 (_run_job):22946 [wandb_init.py:_jupyter_setup():378] configuring jupyter hooks <wandb.sdk.wandb_init._WandbInit object at 0x15edd3130>
2022-05-05 07:58:28,411 INFO    Thread-917 (_run_job):22946 [wandb_init.py:init():462] calling init triggers
2022-05-05 07:58:28,412 INFO    Thread-917 (_run_job):22946 [wandb_init.py:init():465] wandb.init called with sweep_config: {'epochs': 120, 'learning_rate': 0.0005, 'optimizer': 'sgd'}
config: {}
2022-05-05 07:58:28,412 INFO    Thread-917 (_run_job):22946 [wandb_init.py:init():515] starting backend
2022-05-05 07:58:28,412 INFO    Thread-917 (_run_job):22946 [backend.py:_multiprocessing_setup():97] multiprocessing start_methods=spawn,fork,forkserver, using: spawn
2022-05-05 07:58:28,418 INFO    Thread-917 (_run_job):22946 [backend.py:ensure_launched():217] starting backend process...
2022-05-05 07:58:28,432 INFO    Thread-917 (_run_job):22946 [backend.py:ensure_launched():222] started backend process with pid: 25665
2022-05-05 07:58:28,447 INFO    Thread-917 (_run_job):22946 [wandb_init.py:init():525] backend started and connected
2022-05-05 07:58:28,493 INFO    Thread-917 (_run_job):22946 [wandb_run.py:_label_probe_notebook():1089] probe notebook
2022-05-05 07:58:28,493 INFO    Thread-917 (_run_job):22946 [wandb_run.py:_label_probe_notebook():1099] Unable to probe notebook: 'NoneType' object has no attribute 'get'
2022-05-05 07:58:28,494 INFO    Thread-917 (_run_job):22946 [wandb_init.py:init():596] updated telemetry
2022-05-05 07:58:28,495 INFO    Thread-917 (_run_job):22946 [wandb_init.py:init():627] communicating run to backend with 30 second timeout
2022-05-05 07:58:30,166 INFO    Thread-917 (_run_job):22946 [wandb_run.py:_on_init():1924] communicating current version
2022-05-05 07:58:30,423 INFO    Thread-917 (_run_job):22946 [wandb_run.py:_on_init():1928] got version response 
2022-05-05 07:58:30,423 INFO    Thread-917 (_run_job):22946 [wandb_init.py:init():662] starting run threads in backend
2022-05-05 07:58:34,387 INFO    Thread-917 (_run_job):22946 [wandb_run.py:_config_callback():1136] config_cb None None {'epochs': 120, 'learning_rate': 0.0005, 'optimizer': 'sgd'}
2022-05-05 07:58:34,403 INFO    Thread-917 (_run_job):22946 [wandb_run.py:_console_start():1898] atexit reg
2022-05-05 07:58:34,406 INFO    Thread-917 (_run_job):22946 [wandb_run.py:_redirect():1771] redirect: SettingsConsole.WRAP
2022-05-05 07:58:34,406 INFO    Thread-917 (_run_job):22946 [wandb_run.py:_redirect():1808] Wrapping output streams.
2022-05-05 07:58:34,407 INFO    Thread-917 (_run_job):22946 [wandb_run.py:_redirect():1832] Redirects installed.
2022-05-05 07:58:34,408 INFO    Thread-917 (_run_job):22946 [wandb_init.py:init():688] run started, returning control to user process
2022-05-05 07:58:39,253 INFO    Thread-917 (_run_job):22946 [wandb_run.py:_finish():1685] finishing run rjirkovsky/ai-and-robotics/dghxceho
2022-05-05 07:58:39,253 INFO    Thread-917 (_run_job):22946 [jupyter.py:save_history():435] not saving jupyter history
2022-05-05 07:58:39,254 INFO    Thread-917 (_run_job):22946 [jupyter.py:save_ipynb():377] not saving jupyter notebook
2022-05-05 07:58:39,254 INFO    Thread-917 (_run_job):22946 [wandb_init.py:_jupyter_teardown():360] cleaning up jupyter logic
2022-05-05 07:58:39,254 INFO    Thread-917 (_run_job):22946 [wandb_run.py:_atexit_cleanup():1867] got exitcode: 0
2022-05-05 07:58:39,255 INFO    Thread-917 (_run_job):22946 [wandb_run.py:_restore():1839] restore
2022-05-05 07:58:39,980 INFO    Thread-917 (_run_job):22946 [wandb_run.py:_on_finish():1996] got exit ret: file_counts {
  wandb_count: 1
  media_count: 1
  other_count: 1
}
pusher_stats {
  uploaded_bytes: 23005
  total_bytes: 23005
}

2022-05-05 07:58:40,372 INFO    Thread-917 (_run_job):22946 [wandb_run.py:_on_finish():1996] got exit ret: file_counts {
  wandb_count: 1
  media_count: 1
  other_count: 1
}
pusher_stats {
  uploaded_bytes: 23005
  total_bytes: 23005
}

2022-05-05 07:58:41,150 INFO    Thread-917 (_run_job):22946 [wandb_run.py:_on_finish():1996] got exit ret: file_counts {
  wandb_count: 5
  media_count: 1
  other_count: 1
}
pusher_stats {
  uploaded_bytes: 23005
  total_bytes: 49800
}

2022-05-05 07:58:41,257 INFO    Thread-917 (_run_job):22946 [wandb_run.py:_on_finish():1996] got exit ret: file_counts {
  wandb_count: 5
  media_count: 1
  other_count: 1
}
pusher_stats {
  uploaded_bytes: 1013
  total_bytes: 49800
}

2022-05-05 07:58:41,361 INFO    Thread-917 (_run_job):22946 [wandb_run.py:_on_finish():1996] got exit ret: file_counts {
  wandb_count: 5
  media_count: 1
  other_count: 1
}
pusher_stats {
  uploaded_bytes: 1013
  total_bytes: 49800
}

2022-05-05 07:58:41,469 INFO    Thread-917 (_run_job):22946 [wandb_run.py:_on_finish():1996] got exit ret: file_counts {
  wandb_count: 5
  media_count: 1
  other_count: 1
}
pusher_stats {
  uploaded_bytes: 1013
  total_bytes: 49800
}

2022-05-05 07:58:41,576 INFO    Thread-917 (_run_job):22946 [wandb_run.py:_on_finish():1996] got exit ret: file_counts {
  wandb_count: 5
  media_count: 1
  other_count: 1
}
pusher_stats {
  uploaded_bytes: 1537
  total_bytes: 49800
}

2022-05-05 07:58:41,678 INFO    Thread-917 (_run_job):22946 [wandb_run.py:_on_finish():1996] got exit ret: file_counts {
  wandb_count: 5
  media_count: 1
  other_count: 1
}
pusher_stats {
  uploaded_bytes: 49800
  total_bytes: 49800
}

2022-05-05 07:58:41,785 INFO    Thread-917 (_run_job):22946 [wandb_run.py:_on_finish():1996] got exit ret: file_counts {
  wandb_count: 5
  media_count: 1
  other_count: 1
}
pusher_stats {
  uploaded_bytes: 49800
  total_bytes: 49800
}

2022-05-05 07:58:41,889 INFO    Thread-917 (_run_job):22946 [wandb_run.py:_on_finish():1996] got exit ret: file_counts {
  wandb_count: 5
  media_count: 1
  other_count: 1
}
pusher_stats {
  uploaded_bytes: 49800
  total_bytes: 49800
}

2022-05-05 07:58:41,995 INFO    Thread-917 (_run_job):22946 [wandb_run.py:_on_finish():1996] got exit ret: file_counts {
  wandb_count: 5
  media_count: 1
  other_count: 1
}
pusher_stats {
  uploaded_bytes: 49800
  total_bytes: 49800
}

2022-05-05 07:58:42,106 INFO    Thread-917 (_run_job):22946 [wandb_run.py:_on_finish():1996] got exit ret: file_counts {
  wandb_count: 5
  media_count: 1
  other_count: 1
}
pusher_stats {
  uploaded_bytes: 49800
  total_bytes: 49800
}

2022-05-05 07:58:42,209 INFO    Thread-917 (_run_job):22946 [wandb_run.py:_on_finish():1996] got exit ret: file_counts {
  wandb_count: 5
  media_count: 1
  other_count: 1
}
pusher_stats {
  uploaded_bytes: 49800
  total_bytes: 49800
}

2022-05-05 07:58:42,316 INFO    Thread-917 (_run_job):22946 [wandb_run.py:_on_finish():1996] got exit ret: file_counts {
  wandb_count: 5
  media_count: 1
  other_count: 1
}
pusher_stats {
  uploaded_bytes: 49800
  total_bytes: 49800
}

2022-05-05 07:58:42,583 INFO    Thread-917 (_run_job):22946 [wandb_run.py:_on_finish():1996] got exit ret: file_counts {
  wandb_count: 5
  media_count: 1
  other_count: 1
}
pusher_stats {
  uploaded_bytes: 49800
  total_bytes: 49800
}

2022-05-05 07:58:43,263 INFO    Thread-917 (_run_job):22946 [wandb_run.py:_on_finish():1996] got exit ret: done: true
exit_result {
}
file_counts {
  wandb_count: 5
  media_count: 1
  other_count: 1
}
pusher_stats {
  uploaded_bytes: 49800
  total_bytes: 49800
}
local_info {
}

2022-05-05 07:58:44,727 INFO    Thread-917 (_run_job):22946 [wandb_run.py:_footer_history_summary_info():3104] rendering history
2022-05-05 07:58:44,728 INFO    Thread-917 (_run_job):22946 [wandb_run.py:_footer_history_summary_info():3136] rendering summary
2022-05-05 07:58:44,734 INFO    Thread-917 (_run_job):22946 [wandb_run.py:_footer_sync_info():3060] logging synced files
