Epoch 1/40
2/2 [==============================] - 1s 193ms/step - loss: 41.5291 - accuracy: 0.3421 - val_loss: 1.0986 - val_accuracy: 0.3000 - _timestamp: 1651729689.0000 - _runtime: 7.0000
Epoch 2/40
2/2 [==============================] - 0s 26ms/step - loss: 1.0986 - accuracy: 0.3421 - val_loss: 1.0986 - val_accuracy: 0.3000 - _timestamp: 1651729689.0000 - _runtime: 7.0000
Epoch 3/40
2/2 [==============================] - 0s 27ms/step - loss: 1.0986 - accuracy: 0.3421 - val_loss: 1.0986 - val_accuracy: 0.3000 - _timestamp: 1651729689.0000 - _runtime: 7.0000
Epoch 4/40
2/2 [==============================] - 0s 38ms/step - loss: 1.0986 - accuracy: 0.3421 - val_loss: 1.0986 - val_accuracy: 0.3000 - _timestamp: 1651729689.0000 - _runtime: 7.0000
Epoch 5/40
2/2 [==============================] - 0s 32ms/step - loss: 1.0986 - accuracy: 0.3421 - val_loss: 1.0986 - val_accuracy: 0.3000 - _timestamp: 1651729689.0000 - _runtime: 7.0000
Epoch 6/40
2/2 [==============================] - 0s 26ms/step - loss: 1.0986 - accuracy: 0.3421 - val_loss: 1.0986 - val_accuracy: 0.3000 - _timestamp: 1651729689.0000 - _runtime: 7.0000
Epoch 7/40
2/2 [==============================] - 0s 26ms/step - loss: 1.0986 - accuracy: 0.3421 - val_loss: 1.0986 - val_accuracy: 0.3000 - _timestamp: 1651729689.0000 - _runtime: 7.0000
Epoch 8/40
2/2 [==============================] - 0s 26ms/step - loss: 1.0986 - accuracy: 0.3421 - val_loss: 1.0986 - val_accuracy: 0.3000 - _timestamp: 1651729689.0000 - _runtime: 7.0000
Epoch 9/40
2/2 [==============================] - 0s 27ms/step - loss: 1.0986 - accuracy: 0.3421 - val_loss: 1.0986 - val_accuracy: 0.3000 - _timestamp: 1651729689.0000 - _runtime: 7.0000
Epoch 10/40
2/2 [==============================] - 0s 26ms/step - loss: 1.0986 - accuracy: 0.3421 - val_loss: 1.0986 - val_accuracy: 0.3000 - _timestamp: 1651729689.0000 - _runtime: 7.0000
Epoch 11/40
2/2 [==============================] - 0s 27ms/step - loss: 1.0986 - accuracy: 0.3421 - val_loss: 1.0986 - val_accuracy: 0.3000 - _timestamp: 1651729689.0000 - _runtime: 7.0000
Epoch 12/40
2/2 [==============================] - 0s 26ms/step - loss: 1.0986 - accuracy: 0.3421 - val_loss: 1.0986 - val_accuracy: 0.3000 - _timestamp: 1651729689.0000 - _runtime: 7.0000
Epoch 13/40
2/2 [==============================] - 0s 48ms/step - loss: 1.0986 - accuracy: 0.3421 - val_loss: 1.0986 - val_accuracy: 0.3000 - _timestamp: 1651729689.0000 - _runtime: 7.0000
Epoch 14/40
2/2 [==============================] - 0s 26ms/step - loss: 1.0986 - accuracy: 0.3421 - val_loss: 1.0986 - val_accuracy: 0.3000 - _timestamp: 1651729689.0000 - _runtime: 7.0000
Epoch 15/40
2/2 [==============================] - 0s 26ms/step - loss: 1.0986 - accuracy: 0.3421 - val_loss: 1.0986 - val_accuracy: 0.3000 - _timestamp: 1651729689.0000 - _runtime: 7.0000
Epoch 16/40
2/2 [==============================] - 0s 25ms/step - loss: 1.0986 - accuracy: 0.3421 - val_loss: 1.0986 - val_accuracy: 0.3000 - _timestamp: 1651729689.0000 - _runtime: 7.0000
Epoch 17/40
2/2 [==============================] - 0s 26ms/step - loss: 1.0986 - accuracy: 0.3421 - val_loss: 1.0986 - val_accuracy: 0.3000 - _timestamp: 1651729689.0000 - _runtime: 7.0000
Epoch 18/40
2/2 [==============================] - 0s 25ms/step - loss: 1.0986 - accuracy: 0.3421 - val_loss: 1.0986 - val_accuracy: 0.3000 - _timestamp: 1651729689.0000 - _runtime: 7.0000
Epoch 19/40
2/2 [==============================] - 0s 26ms/step - loss: 1.0986 - accuracy: 0.3421 - val_loss: 1.0986 - val_accuracy: 0.3000 - _timestamp: 1651729690.0000 - _runtime: 8.0000
Epoch 20/40
2/2 [==============================] - 0s 27ms/step - loss: 1.0986 - accuracy: 0.3421 - val_loss: 1.0986 - val_accuracy: 0.3000 - _timestamp: 1651729690.0000 - _runtime: 8.0000
Epoch 21/40
2/2 [==============================] - 0s 26ms/step - loss: 1.0986 - accuracy: 0.3421 - val_loss: 1.0986 - val_accuracy: 0.3000 - _timestamp: 1651729690.0000 - _runtime: 8.0000
Epoch 22/40
2/2 [==============================] - 0s 27ms/step - loss: 1.0986 - accuracy: 0.3421 - val_loss: 1.0986 - val_accuracy: 0.3000 - _timestamp: 1651729690.0000 - _runtime: 8.0000
Epoch 23/40
2/2 [==============================] - 0s 27ms/step - loss: 1.0986 - accuracy: 0.3421 - val_loss: 1.0986 - val_accuracy: 0.3000 - _timestamp: 1651729690.0000 - _runtime: 8.0000
Epoch 24/40
2/2 [==============================] - 0s 25ms/step - loss: 1.0986 - accuracy: 0.3421 - val_loss: 1.0986 - val_accuracy: 0.3000 - _timestamp: 1651729690.0000 - _runtime: 8.0000
Epoch 25/40
2/2 [==============================] - 0s 26ms/step - loss: 1.0986 - accuracy: 0.3421 - val_loss: 1.0986 - val_accuracy: 0.3000 - _timestamp: 1651729690.0000 - _runtime: 8.0000
Epoch 26/40
2/2 [==============================] - 0s 26ms/step - loss: 1.0986 - accuracy: 0.3421 - val_loss: 1.0986 - val_accuracy: 0.3000 - _timestamp: 1651729690.0000 - _runtime: 8.0000
Epoch 27/40
2/2 [==============================] - 0s 27ms/step - loss: 1.0986 - accuracy: 0.3421 - val_loss: 1.0986 - val_accuracy: 0.3000 - _timestamp: 1651729690.0000 - _runtime: 8.0000
Epoch 28/40
2/2 [==============================] - 0s 42ms/step - loss: 1.0986 - accuracy: 0.3421 - val_loss: 1.0986 - val_accuracy: 0.3000 - _timestamp: 1651729690.0000 - _runtime: 8.0000
Epoch 29/40
2/2 [==============================] - 0s 43ms/step - loss: 1.0986 - accuracy: 0.3421 - val_loss: 1.0986 - val_accuracy: 0.3000 - _timestamp: 1651729690.0000 - _runtime: 8.0000
Epoch 30/40
2/2 [==============================] - 0s 27ms/step - loss: 1.0986 - accuracy: 0.3421 - val_loss: 1.0986 - val_accuracy: 0.3000 - _timestamp: 1651729690.0000 - _runtime: 8.0000
Epoch 31/40
2/2 [==============================] - 0s 27ms/step - loss: 1.0986 - accuracy: 0.3421 - val_loss: 1.0986 - val_accuracy: 0.3000 - _timestamp: 1651729690.0000 - _runtime: 8.0000
Epoch 32/40
2/2 [==============================] - 0s 26ms/step - loss: 1.0986 - accuracy: 0.3421 - val_loss: 1.0986 - val_accuracy: 0.3000 - _timestamp: 1651729690.0000 - _runtime: 8.0000
Epoch 33/40
2/2 [==============================] - 0s 26ms/step - loss: 1.0986 - accuracy: 0.3421 - val_loss: 1.0986 - val_accuracy: 0.3000 - _timestamp: 1651729690.0000 - _runtime: 8.0000
Epoch 34/40
2/2 [==============================] - 0s 26ms/step - loss: 1.0986 - accuracy: 0.3421 - val_loss: 1.0986 - val_accuracy: 0.3000 - _timestamp: 1651729690.0000 - _runtime: 8.0000
Epoch 35/40
2/2 [==============================] - 0s 26ms/step - loss: 1.0986 - accuracy: 0.3421 - val_loss: 1.0986 - val_accuracy: 0.3000 - _timestamp: 1651729690.0000 - _runtime: 8.0000
Epoch 36/40
2/2 [==============================] - 0s 26ms/step - loss: 1.0986 - accuracy: 0.3421 - val_loss: 1.0986 - val_accuracy: 0.3000 - _timestamp: 1651729690.0000 - _runtime: 8.0000
Epoch 37/40
2/2 [==============================] - 0s 25ms/step - loss: 1.0986 - accuracy: 0.3421 - val_loss: 1.0986 - val_accuracy: 0.3000 - _timestamp: 1651729690.0000 - _runtime: 8.0000
Epoch 38/40
2/2 [==============================] - 0s 25ms/step - loss: 1.0986 - accuracy: 0.3421 - val_loss: 1.0986 - val_accuracy: 0.3000 - _timestamp: 1651729690.0000 - _runtime: 8.0000
Epoch 39/40
2/2 [==============================] - 0s 26ms/step - loss: 1.0986 - accuracy: 0.3421 - val_loss: 1.0986 - val_accuracy: 0.3000 - _timestamp: 1651729690.0000 - _runtime: 8.0000
Epoch 40/40
2/2 [==============================] - 0s 25ms/step - loss: 1.0986 - accuracy: 0.3421 - val_loss: 1.0986 - val_accuracy: 0.3000 - _timestamp: 1651729690.0000 - _runtime: 8.0000
1/1 [==============================] - 0s 22ms/step - loss: 1.0986 - accuracy: 0.3333