Epoch 1/40
2/2 [==============================] - 0s 129ms/step - loss: 20.2108 - accuracy: 0.2895 - val_loss: 6.3729 - val_accuracy: 0.4000 - _timestamp: 1651732437.0000 - _runtime: 5.0000
Epoch 2/40
2/2 [==============================] - 0s 31ms/step - loss: 8.5830 - accuracy: 0.3947 - val_loss: 5.4343 - val_accuracy: 0.5000 - _timestamp: 1651732437.0000 - _runtime: 5.0000
Epoch 3/40
2/2 [==============================] - 0s 27ms/step - loss: 6.3857 - accuracy: 0.4211 - val_loss: 4.5796 - val_accuracy: 0.2000 - _timestamp: 1651732437.0000 - _runtime: 5.0000
Epoch 4/40
2/2 [==============================] - 0s 27ms/step - loss: 3.3363 - accuracy: 0.2368 - val_loss: 3.3226 - val_accuracy: 0.4000 - _timestamp: 1651732437.0000 - _runtime: 5.0000
Epoch 5/40
2/2 [==============================] - 0s 28ms/step - loss: 2.6202 - accuracy: 0.4474 - val_loss: 1.0579 - val_accuracy: 0.6000 - _timestamp: 1651732437.0000 - _runtime: 5.0000
Epoch 6/40
2/2 [==============================] - 0s 18ms/step - loss: 1.1483 - accuracy: 0.6053 - val_loss: 1.3502 - val_accuracy: 0.5000 - _timestamp: 1651732437.0000 - _runtime: 5.0000
Epoch 7/40
2/2 [==============================] - 0s 28ms/step - loss: 1.2601 - accuracy: 0.5526 - val_loss: 0.5592 - val_accuracy: 0.8000 - _timestamp: 1651732437.0000 - _runtime: 5.0000
Epoch 8/40
2/2 [==============================] - 0s 26ms/step - loss: 0.4733 - accuracy: 0.8158 - val_loss: 0.3549 - val_accuracy: 0.9000 - _timestamp: 1651732437.0000 - _runtime: 5.0000
Epoch 9/40
2/2 [==============================] - 0s 28ms/step - loss: 0.4552 - accuracy: 0.8421 - val_loss: 0.3231 - val_accuracy: 0.9000 - _timestamp: 1651732437.0000 - _runtime: 5.0000
Epoch 10/40
2/2 [==============================] - 0s 27ms/step - loss: 0.5358 - accuracy: 0.8421 - val_loss: 0.2926 - val_accuracy: 0.8000 - _timestamp: 1651732437.0000 - _runtime: 5.0000
Epoch 11/40
2/2 [==============================] - 0s 17ms/step - loss: 0.3551 - accuracy: 0.8421 - val_loss: 0.7541 - val_accuracy: 0.8000 - _timestamp: 1651732437.0000 - _runtime: 5.0000
Epoch 12/40
2/2 [==============================] - 0s 18ms/step - loss: 0.4993 - accuracy: 0.8158 - val_loss: 0.5078 - val_accuracy: 0.8000 - _timestamp: 1651732437.0000 - _runtime: 5.0000
Epoch 13/40
2/2 [==============================] - 0s 19ms/step - loss: 0.3125 - accuracy: 0.8421 - val_loss: 0.3291 - val_accuracy: 0.9000 - _timestamp: 1651732437.0000 - _runtime: 5.0000
Epoch 14/40
2/2 [==============================] - 0s 27ms/step - loss: 0.3193 - accuracy: 0.8158 - val_loss: 0.2292 - val_accuracy: 0.9000 - _timestamp: 1651732437.0000 - _runtime: 5.0000
Epoch 15/40
2/2 [==============================] - 0s 27ms/step - loss: 0.2812 - accuracy: 0.8684 - val_loss: 0.2243 - val_accuracy: 0.9000 - _timestamp: 1651732437.0000 - _runtime: 5.0000
Epoch 16/40
2/2 [==============================] - 0s 30ms/step - loss: 0.3312 - accuracy: 0.8947 - val_loss: 0.2192 - val_accuracy: 1.0000 - _timestamp: 1651732437.0000 - _runtime: 5.0000
Epoch 17/40
2/2 [==============================] - 0s 28ms/step - loss: 0.2401 - accuracy: 0.9211 - val_loss: 0.1999 - val_accuracy: 0.9000 - _timestamp: 1651732437.0000 - _runtime: 5.0000
Epoch 18/40
2/2 [==============================] - 0s 17ms/step - loss: 0.1206 - accuracy: 0.9737 - val_loss: 0.3354 - val_accuracy: 0.9000 - _timestamp: 1651732437.0000 - _runtime: 5.0000
Epoch 19/40
2/2 [==============================] - 0s 17ms/step - loss: 0.2400 - accuracy: 0.8947 - val_loss: 0.3787 - val_accuracy: 0.9000 - _timestamp: 1651732437.0000 - _runtime: 5.0000
Epoch 20/40
2/2 [==============================] - 0s 26ms/step - loss: 0.2319 - accuracy: 0.9211 - val_loss: 0.1801 - val_accuracy: 0.9000 - _timestamp: 1651732437.0000 - _runtime: 5.0000
Epoch 21/40
2/2 [==============================] - 0s 27ms/step - loss: 0.1323 - accuracy: 0.9474 - val_loss: 0.2968 - val_accuracy: 0.8000 - _timestamp: 1651732437.0000 - _runtime: 5.0000
Epoch 22/40
2/2 [==============================] - 0s 28ms/step - loss: 0.2375 - accuracy: 0.8684 - val_loss: 0.1612 - val_accuracy: 0.9000 - _timestamp: 1651732437.0000 - _runtime: 5.0000
Epoch 23/40
2/2 [==============================] - 0s 16ms/step - loss: 0.1554 - accuracy: 0.9211 - val_loss: 0.3008 - val_accuracy: 0.9000 - _timestamp: 1651732437.0000 - _runtime: 5.0000
Epoch 24/40
2/2 [==============================] - 0s 17ms/step - loss: 0.1868 - accuracy: 0.8947 - val_loss: 0.3540 - val_accuracy: 0.9000 - _timestamp: 1651732437.0000 - _runtime: 5.0000
Epoch 25/40
2/2 [==============================] - 0s 16ms/step - loss: 0.2329 - accuracy: 0.8947 - val_loss: 0.3234 - val_accuracy: 0.9000 - _timestamp: 1651732437.0000 - _runtime: 5.0000
Epoch 26/40
2/2 [==============================] - 0s 17ms/step - loss: 0.2107 - accuracy: 0.8947 - val_loss: 0.2284 - val_accuracy: 0.9000 - _timestamp: 1651732437.0000 - _runtime: 5.0000
Epoch 27/40
2/2 [==============================] - 0s 26ms/step - loss: 0.1453 - accuracy: 0.9211 - val_loss: 0.1461 - val_accuracy: 0.9000 - _timestamp: 1651732437.0000 - _runtime: 5.0000
Epoch 28/40
2/2 [==============================] - 0s 17ms/step - loss: 0.1047 - accuracy: 0.9474 - val_loss: 0.1545 - val_accuracy: 1.0000 - _timestamp: 1651732437.0000 - _runtime: 5.0000
Epoch 29/40
2/2 [==============================] - 0s 27ms/step - loss: 0.1692 - accuracy: 0.9211 - val_loss: 0.1349 - val_accuracy: 0.9000 - _timestamp: 1651732438.0000 - _runtime: 6.0000
Epoch 30/40
2/2 [==============================] - 0s 17ms/step - loss: 0.1422 - accuracy: 0.8947 - val_loss: 0.2161 - val_accuracy: 0.9000 - _timestamp: 1651732438.0000 - _runtime: 6.0000
Epoch 31/40
2/2 [==============================] - 0s 17ms/step - loss: 0.1399 - accuracy: 0.9474 - val_loss: 0.2086 - val_accuracy: 0.9000 - _timestamp: 1651732438.0000 - _runtime: 6.0000
Epoch 32/40
2/2 [==============================] - 0s 17ms/step - loss: 0.1373 - accuracy: 0.9211 - val_loss: 0.1667 - val_accuracy: 0.9000 - _timestamp: 1651732438.0000 - _runtime: 6.0000
Epoch 33/40
2/2 [==============================] - 0s 17ms/step - loss: 0.1102 - accuracy: 0.9474 - val_loss: 0.1474 - val_accuracy: 0.9000 - _timestamp: 1651732438.0000 - _runtime: 6.0000
Epoch 34/40
2/2 [==============================] - 0s 26ms/step - loss: 0.1118 - accuracy: 0.9474 - val_loss: 0.1328 - val_accuracy: 0.9000 - _timestamp: 1651732438.0000 - _runtime: 6.0000
Epoch 35/40
2/2 [==============================] - 0s 27ms/step - loss: 0.1158 - accuracy: 0.9474 - val_loss: 0.1257 - val_accuracy: 0.9000 - _timestamp: 1651732438.0000 - _runtime: 6.0000
Epoch 36/40
2/2 [==============================] - 0s 17ms/step - loss: 0.1096 - accuracy: 0.9474 - val_loss: 0.1286 - val_accuracy: 0.9000 - _timestamp: 1651732438.0000 - _runtime: 6.0000
Epoch 37/40
2/2 [==============================] - 0s 16ms/step - loss: 0.1010 - accuracy: 0.9474 - val_loss: 0.1470 - val_accuracy: 0.9000 - _timestamp: 1651732438.0000 - _runtime: 6.0000
Epoch 38/40
2/2 [==============================] - 0s 17ms/step - loss: 0.1058 - accuracy: 0.9474 - val_loss: 0.1630 - val_accuracy: 0.9000 - _timestamp: 1651732438.0000 - _runtime: 6.0000
Epoch 39/40
2/2 [==============================] - 0s 16ms/step - loss: 0.1049 - accuracy: 0.9737 - val_loss: 0.1596 - val_accuracy: 0.9000 - _timestamp: 1651732438.0000 - _runtime: 6.0000
Epoch 40/40
2/2 [==============================] - 0s 18ms/step - loss: 0.1083 - accuracy: 0.9474 - val_loss: 0.1519 - val_accuracy: 0.9000 - _timestamp: 1651732438.0000 - _runtime: 6.0000
1/1 [==============================] - 0s 14ms/step - loss: 0.3610 - accuracy: 0.7500