Epoch 1/60
2/2 [==============================] - 0s 127ms/step - loss: 18.7132 - accuracy: 0.2895 - val_loss: 17.1705 - val_accuracy: 0.3000 - _timestamp: 1651732502.0000 - _runtime: 5.0000
Epoch 2/60
2/2 [==============================] - 0s 27ms/step - loss: 16.5208 - accuracy: 0.2895 - val_loss: 14.9808 - val_accuracy: 0.3000 - _timestamp: 1651732502.0000 - _runtime: 5.0000
Epoch 3/60
2/2 [==============================] - 0s 26ms/step - loss: 14.6350 - accuracy: 0.2895 - val_loss: 13.0741 - val_accuracy: 0.3000 - _timestamp: 1651732502.0000 - _runtime: 5.0000
Epoch 4/60
2/2 [==============================] - 0s 27ms/step - loss: 12.7112 - accuracy: 0.2895 - val_loss: 11.2358 - val_accuracy: 0.3000 - _timestamp: 1651732502.0000 - _runtime: 5.0000
Epoch 5/60
2/2 [==============================] - 0s 26ms/step - loss: 10.8185 - accuracy: 0.2895 - val_loss: 9.3947 - val_accuracy: 0.3000 - _timestamp: 1651732502.0000 - _runtime: 5.0000
Epoch 6/60
2/2 [==============================] - 0s 28ms/step - loss: 9.0957 - accuracy: 0.2895 - val_loss: 7.8157 - val_accuracy: 0.5000 - _timestamp: 1651732502.0000 - _runtime: 5.0000
Epoch 7/60
2/2 [==============================] - 0s 27ms/step - loss: 7.3963 - accuracy: 0.4474 - val_loss: 7.0818 - val_accuracy: 0.7000 - _timestamp: 1651732502.0000 - _runtime: 5.0000
Epoch 8/60
2/2 [==============================] - 0s 26ms/step - loss: 6.3625 - accuracy: 0.5000 - val_loss: 6.7333 - val_accuracy: 0.7000 - _timestamp: 1651732502.0000 - _runtime: 5.0000
Epoch 9/60
2/2 [==============================] - 0s 27ms/step - loss: 5.5256 - accuracy: 0.5526 - val_loss: 6.4666 - val_accuracy: 0.7000 - _timestamp: 1651732502.0000 - _runtime: 5.0000
Epoch 10/60
2/2 [==============================] - 0s 27ms/step - loss: 5.1762 - accuracy: 0.4474 - val_loss: 6.4363 - val_accuracy: 0.5000 - _timestamp: 1651732502.0000 - _runtime: 5.0000
Epoch 11/60
2/2 [==============================] - 0s 27ms/step - loss: 5.0511 - accuracy: 0.3421 - val_loss: 6.4158 - val_accuracy: 0.4000 - _timestamp: 1651732502.0000 - _runtime: 5.0000
Epoch 12/60
2/2 [==============================] - 0s 28ms/step - loss: 4.9271 - accuracy: 0.4211 - val_loss: 6.1474 - val_accuracy: 0.4000 - _timestamp: 1651732502.0000 - _runtime: 5.0000
Epoch 13/60
2/2 [==============================] - 0s 28ms/step - loss: 4.6932 - accuracy: 0.4474 - val_loss: 5.6580 - val_accuracy: 0.4000 - _timestamp: 1651732502.0000 - _runtime: 5.0000
Epoch 14/60
2/2 [==============================] - 0s 27ms/step - loss: 4.2659 - accuracy: 0.4211 - val_loss: 5.0410 - val_accuracy: 0.4000 - _timestamp: 1651732502.0000 - _runtime: 5.0000
Epoch 15/60
2/2 [==============================] - 0s 26ms/step - loss: 3.7674 - accuracy: 0.4211 - val_loss: 4.3854 - val_accuracy: 0.5000 - _timestamp: 1651732502.0000 - _runtime: 5.0000
Epoch 16/60
2/2 [==============================] - 0s 26ms/step - loss: 3.1591 - accuracy: 0.4211 - val_loss: 3.7192 - val_accuracy: 0.6000 - _timestamp: 1651732502.0000 - _runtime: 5.0000
Epoch 17/60
2/2 [==============================] - 0s 28ms/step - loss: 2.6710 - accuracy: 0.5000 - val_loss: 3.1445 - val_accuracy: 0.7000 - _timestamp: 1651732502.0000 - _runtime: 5.0000
Epoch 18/60
2/2 [==============================] - 0s 27ms/step - loss: 2.2092 - accuracy: 0.6579 - val_loss: 2.7166 - val_accuracy: 0.7000 - _timestamp: 1651732502.0000 - _runtime: 5.0000
Epoch 19/60
2/2 [==============================] - 0s 28ms/step - loss: 1.9450 - accuracy: 0.7368 - val_loss: 2.3848 - val_accuracy: 0.8000 - _timestamp: 1651732502.0000 - _runtime: 5.0000
Epoch 20/60
2/2 [==============================] - 0s 27ms/step - loss: 1.7793 - accuracy: 0.7895 - val_loss: 2.1613 - val_accuracy: 0.8000 - _timestamp: 1651732502.0000 - _runtime: 5.0000
Epoch 21/60
2/2 [==============================] - 0s 28ms/step - loss: 1.7247 - accuracy: 0.7632 - val_loss: 2.0628 - val_accuracy: 0.8000 - _timestamp: 1651732502.0000 - _runtime: 5.0000
Epoch 22/60
2/2 [==============================] - 0s 27ms/step - loss: 1.7892 - accuracy: 0.6842 - val_loss: 2.0090 - val_accuracy: 0.6000 - _timestamp: 1651732502.0000 - _runtime: 5.0000
Epoch 23/60
2/2 [==============================] - 0s 27ms/step - loss: 1.8477 - accuracy: 0.6316 - val_loss: 1.9228 - val_accuracy: 0.7000 - _timestamp: 1651732502.0000 - _runtime: 5.0000
Epoch 24/60
2/2 [==============================] - 0s 26ms/step - loss: 1.8146 - accuracy: 0.6842 - val_loss: 1.8129 - val_accuracy: 0.7000 - _timestamp: 1651732502.0000 - _runtime: 5.0000
Epoch 25/60
2/2 [==============================] - 0s 26ms/step - loss: 1.7210 - accuracy: 0.6842 - val_loss: 1.7017 - val_accuracy: 0.9000 - _timestamp: 1651732502.0000 - _runtime: 5.0000
Epoch 26/60
2/2 [==============================] - 0s 27ms/step - loss: 1.6350 - accuracy: 0.7368 - val_loss: 1.6168 - val_accuracy: 0.8000 - _timestamp: 1651732502.0000 - _runtime: 5.0000
Epoch 27/60
2/2 [==============================] - 0s 26ms/step - loss: 1.5564 - accuracy: 0.7368 - val_loss: 1.5593 - val_accuracy: 0.8000 - _timestamp: 1651732503.0000 - _runtime: 6.0000
Epoch 28/60
2/2 [==============================] - 0s 27ms/step - loss: 1.4799 - accuracy: 0.7368 - val_loss: 1.4897 - val_accuracy: 0.8000 - _timestamp: 1651732503.0000 - _runtime: 6.0000
Epoch 29/60
2/2 [==============================] - 0s 27ms/step - loss: 1.4027 - accuracy: 0.7368 - val_loss: 1.4211 - val_accuracy: 0.8000 - _timestamp: 1651732503.0000 - _runtime: 6.0000
Epoch 30/60
2/2 [==============================] - 0s 28ms/step - loss: 1.3164 - accuracy: 0.7895 - val_loss: 1.3623 - val_accuracy: 0.8000 - _timestamp: 1651732503.0000 - _runtime: 6.0000
Epoch 31/60
2/2 [==============================] - 0s 27ms/step - loss: 1.2240 - accuracy: 0.7895 - val_loss: 1.3045 - val_accuracy: 0.8000 - _timestamp: 1651732503.0000 - _runtime: 6.0000
Epoch 32/60
2/2 [==============================] - 0s 27ms/step - loss: 1.1419 - accuracy: 0.7895 - val_loss: 1.2434 - val_accuracy: 0.8000 - _timestamp: 1651732503.0000 - _runtime: 6.0000
Epoch 33/60
2/2 [==============================] - 0s 27ms/step - loss: 1.0712 - accuracy: 0.7632 - val_loss: 1.1753 - val_accuracy: 0.8000 - _timestamp: 1651732503.0000 - _runtime: 6.0000
Epoch 34/60
2/2 [==============================] - 0s 27ms/step - loss: 1.0098 - accuracy: 0.8158 - val_loss: 1.1049 - val_accuracy: 0.8000 - _timestamp: 1651732503.0000 - _runtime: 6.0000
Epoch 35/60
2/2 [==============================] - 0s 27ms/step - loss: 0.9408 - accuracy: 0.8158 - val_loss: 1.0523 - val_accuracy: 0.8000 - _timestamp: 1651732503.0000 - _runtime: 6.0000
Epoch 36/60
2/2 [==============================] - 0s 45ms/step - loss: 0.8909 - accuracy: 0.8158 - val_loss: 1.0020 - val_accuracy: 0.8000 - _timestamp: 1651732503.0000 - _runtime: 6.0000
Epoch 37/60
2/2 [==============================] - 0s 27ms/step - loss: 0.8282 - accuracy: 0.8158 - val_loss: 0.9464 - val_accuracy: 0.8000 - _timestamp: 1651732503.0000 - _runtime: 6.0000
Epoch 38/60
2/2 [==============================] - 0s 27ms/step - loss: 0.7724 - accuracy: 0.8158 - val_loss: 0.8836 - val_accuracy: 0.8000 - _timestamp: 1651732503.0000 - _runtime: 6.0000
Epoch 39/60
2/2 [==============================] - 0s 27ms/step - loss: 0.7028 - accuracy: 0.8158 - val_loss: 0.7617 - val_accuracy: 0.8000 - _timestamp: 1651732503.0000 - _runtime: 6.0000
Epoch 40/60
2/2 [==============================] - 0s 28ms/step - loss: 0.6348 - accuracy: 0.8421 - val_loss: 0.5934 - val_accuracy: 0.8000 - _timestamp: 1651732503.0000 - _runtime: 6.0000
Epoch 41/60
2/2 [==============================] - 0s 28ms/step - loss: 0.5705 - accuracy: 0.8421 - val_loss: 0.4312 - val_accuracy: 0.8000 - _timestamp: 1651732503.0000 - _runtime: 6.0000
Epoch 42/60
2/2 [==============================] - 0s 25ms/step - loss: 0.5246 - accuracy: 0.8158 - val_loss: 0.3179 - val_accuracy: 0.8000 - _timestamp: 1651732503.0000 - _runtime: 6.0000
Epoch 43/60
2/2 [==============================] - 0s 26ms/step - loss: 0.5291 - accuracy: 0.8421 - val_loss: 0.2667 - val_accuracy: 0.9000 - _timestamp: 1651732503.0000 - _runtime: 6.0000
Epoch 44/60
2/2 [==============================] - 0s 26ms/step - loss: 0.5353 - accuracy: 0.8421 - val_loss: 0.2447 - val_accuracy: 0.9000 - _timestamp: 1651732503.0000 - _runtime: 6.0000
Epoch 45/60
2/2 [==============================] - 0s 29ms/step - loss: 0.5008 - accuracy: 0.8421 - val_loss: 0.2389 - val_accuracy: 0.9000 - _timestamp: 1651732503.0000 - _runtime: 6.0000
Epoch 46/60
2/2 [==============================] - 0s 17ms/step - loss: 0.4597 - accuracy: 0.8684 - val_loss: 0.2589 - val_accuracy: 0.9000 - _timestamp: 1651732503.0000 - _runtime: 6.0000
Epoch 47/60
2/2 [==============================] - 0s 16ms/step - loss: 0.4176 - accuracy: 0.8684 - val_loss: 0.2907 - val_accuracy: 0.9000 - _timestamp: 1651732503.0000 - _runtime: 6.0000
Epoch 48/60
2/2 [==============================] - 0s 16ms/step - loss: 0.4017 - accuracy: 0.8684 - val_loss: 0.3282 - val_accuracy: 0.8000 - _timestamp: 1651732503.0000 - _runtime: 6.0000
Epoch 49/60
2/2 [==============================] - 0s 16ms/step - loss: 0.4060 - accuracy: 0.8421 - val_loss: 0.3590 - val_accuracy: 0.8000 - _timestamp: 1651732503.0000 - _runtime: 6.0000
Epoch 50/60
2/2 [==============================] - 0s 17ms/step - loss: 0.4147 - accuracy: 0.8158 - val_loss: 0.3626 - val_accuracy: 0.8000 - _timestamp: 1651732503.0000 - _runtime: 6.0000
Epoch 51/60
2/2 [==============================] - 0s 18ms/step - loss: 0.4097 - accuracy: 0.8158 - val_loss: 0.3449 - val_accuracy: 0.8000 - _timestamp: 1651732503.0000 - _runtime: 6.0000
Epoch 52/60
2/2 [==============================] - 0s 17ms/step - loss: 0.3979 - accuracy: 0.8158 - val_loss: 0.3213 - val_accuracy: 0.8000 - _timestamp: 1651732503.0000 - _runtime: 6.0000
Epoch 53/60
2/2 [==============================] - 0s 18ms/step - loss: 0.3891 - accuracy: 0.8158 - val_loss: 0.2978 - val_accuracy: 0.9000 - _timestamp: 1651732503.0000 - _runtime: 6.0000
Epoch 54/60
2/2 [==============================] - 0s 27ms/step - loss: 0.3743 - accuracy: 0.8421 - val_loss: 0.2809 - val_accuracy: 0.9000 - _timestamp: 1651732503.0000 - _runtime: 6.0000
Epoch 55/60
2/2 [==============================] - 0s 17ms/step - loss: 0.3678 - accuracy: 0.8684 - val_loss: 0.2675 - val_accuracy: 0.9000 - _timestamp: 1651732503.0000 - _runtime: 6.0000
Epoch 56/60
2/2 [==============================] - 0s 31ms/step - loss: 0.3592 - accuracy: 0.8684 - val_loss: 0.2604 - val_accuracy: 0.9000 - _timestamp: 1651732503.0000 - _runtime: 6.0000
Epoch 57/60
2/2 [==============================] - 0s 17ms/step - loss: 0.3538 - accuracy: 0.8684 - val_loss: 0.2511 - val_accuracy: 0.9000 - _timestamp: 1651732503.0000 - _runtime: 6.0000
Epoch 58/60
2/2 [==============================] - 0s 19ms/step - loss: 0.3530 - accuracy: 0.8947 - val_loss: 0.2399 - val_accuracy: 0.9000 - _timestamp: 1651732503.0000 - _runtime: 6.0000
Epoch 59/60
2/2 [==============================] - 0s 30ms/step - loss: 0.3555 - accuracy: 0.8947 - val_loss: 0.2284 - val_accuracy: 0.9000 - _timestamp: 1651732503.0000 - _runtime: 6.0000
Epoch 60/60
2/2 [==============================] - 0s 30ms/step - loss: 0.3556 - accuracy: 0.8947 - val_loss: 0.2202 - val_accuracy: 0.9000 - _timestamp: 1651732503.0000 - _runtime: 6.0000
1/1 [==============================] - 0s 17ms/step - loss: 0.3016 - accuracy: 0.9167