2022-05-05 06:46:19,883 INFO    MainThread:23066 [internal.py:wandb_internal():90] W&B internal server running at pid: 23066, started at: 2022-05-05 06:46:19.883544
2022-05-05 06:46:19,885 INFO    WriterThread:23066 [datastore.py:open_for_write():75] open: /Users/korteksickiwijko/University/ai_and_robotics/product/tabata_model/tabata_model/wandb/run-20220505_064618-kugnesl2/run-kugnesl2.wandb
2022-05-05 06:46:19,887 DEBUG   SenderThread:23066 [sender.py:send():232] send: header
2022-05-05 06:46:19,887 DEBUG   SenderThread:23066 [sender.py:send():232] send: run
2022-05-05 06:46:20,246 INFO    SenderThread:23066 [dir_watcher.py:__init__():197] watching files in: /Users/korteksickiwijko/University/ai_and_robotics/product/tabata_model/tabata_model/wandb/run-20220505_064618-kugnesl2/files
2022-05-05 06:46:20,246 INFO    SenderThread:23066 [sender.py:_start_run_threads():811] run started: kugnesl2 with start time 1651725978
2022-05-05 06:46:20,246 DEBUG   SenderThread:23066 [sender.py:send():232] send: summary
2022-05-05 06:46:20,246 INFO    SenderThread:23066 [sender.py:_save_file():948] saving file wandb-summary.json with policy end
2022-05-05 06:46:20,247 DEBUG   HandlerThread:23066 [handler.py:handle_request():141] handle_request: check_version
2022-05-05 06:46:20,247 DEBUG   SenderThread:23066 [sender.py:send_request():246] send_request: check_version
2022-05-05 06:46:20,451 DEBUG   HandlerThread:23066 [handler.py:handle_request():141] handle_request: run_start
2022-05-05 06:46:21,668 INFO    Thread-7  :23066 [dir_watcher.py:_on_file_created():244] file/dir created: /Users/korteksickiwijko/University/ai_and_robotics/product/tabata_model/tabata_model/wandb/run-20220505_064618-kugnesl2/files/wandb-summary.json
2022-05-05 06:46:23,244 DEBUG   HandlerThread:23066 [meta.py:__init__():35] meta init
2022-05-05 06:46:23,244 DEBUG   HandlerThread:23066 [meta.py:__init__():49] meta init done
2022-05-05 06:46:23,244 DEBUG   HandlerThread:23066 [meta.py:probe():209] probe
2022-05-05 06:46:23,259 DEBUG   HandlerThread:23066 [git.py:repo():29] git repository is invalid
2022-05-05 06:46:23,259 DEBUG   HandlerThread:23066 [meta.py:_save_pip():53] save pip
2022-05-05 06:46:23,260 DEBUG   HandlerThread:23066 [meta.py:_save_pip():67] save pip done
2022-05-05 06:46:23,260 DEBUG   HandlerThread:23066 [meta.py:probe():247] probe done
2022-05-05 06:46:23,266 DEBUG   SenderThread:23066 [sender.py:send():232] send: files
2022-05-05 06:46:23,267 INFO    SenderThread:23066 [sender.py:_save_file():948] saving file wandb-metadata.json with policy now
2022-05-05 06:46:23,268 DEBUG   SenderThread:23066 [sender.py:send():232] send: config
2022-05-05 06:46:23,279 DEBUG   HandlerThread:23066 [handler.py:handle_request():141] handle_request: stop_status
2022-05-05 06:46:23,279 DEBUG   SenderThread:23066 [sender.py:send_request():246] send_request: stop_status
2022-05-05 06:46:23,315 DEBUG   HandlerThread:23066 [handler.py:handle_request():141] handle_request: get_summary
2022-05-05 06:46:23,607 DEBUG   SenderThread:23066 [sender.py:send():232] send: telemetry
2022-05-05 06:46:23,608 DEBUG   SenderThread:23066 [sender.py:send():232] send: telemetry
2022-05-05 06:46:23,608 DEBUG   SenderThread:23066 [sender.py:send():232] send: telemetry
2022-05-05 06:46:23,608 DEBUG   SenderThread:23066 [sender.py:send():232] send: files
2022-05-05 06:46:23,608 INFO    SenderThread:23066 [sender.py:_save_file():948] saving file model-best.h5 with policy live
2022-05-05 06:46:23,608 DEBUG   SenderThread:23066 [sender.py:send():232] send: telemetry
2022-05-05 06:46:23,635 DEBUG   SenderThread:23066 [sender.py:send():232] send: files
2022-05-05 06:46:23,635 INFO    SenderThread:23066 [sender.py:_save_file():948] saving file media/graph/graph_summary_d0566fda85d2692a3e6c.graph.json with policy now
2022-05-05 06:46:23,636 DEBUG   SenderThread:23066 [sender.py:send():232] send: summary
2022-05-05 06:46:23,637 INFO    SenderThread:23066 [sender.py:_save_file():948] saving file wandb-summary.json with policy end
2022-05-05 06:46:23,724 INFO    Thread-7  :23066 [dir_watcher.py:_on_file_modified():257] file/dir modified: /Users/korteksickiwijko/University/ai_and_robotics/product/tabata_model/tabata_model/wandb/run-20220505_064618-kugnesl2/files/wandb-summary.json
2022-05-05 06:46:23,725 INFO    Thread-7  :23066 [dir_watcher.py:_on_file_created():244] file/dir created: /Users/korteksickiwijko/University/ai_and_robotics/product/tabata_model/tabata_model/wandb/run-20220505_064618-kugnesl2/files/requirements.txt
2022-05-05 06:46:23,725 INFO    Thread-7  :23066 [dir_watcher.py:_on_file_created():244] file/dir created: /Users/korteksickiwijko/University/ai_and_robotics/product/tabata_model/tabata_model/wandb/run-20220505_064618-kugnesl2/files/output.log
2022-05-05 06:46:23,725 INFO    Thread-7  :23066 [dir_watcher.py:_on_file_created():244] file/dir created: /Users/korteksickiwijko/University/ai_and_robotics/product/tabata_model/tabata_model/wandb/run-20220505_064618-kugnesl2/files/media/graph/graph_summary_d0566fda85d2692a3e6c.graph.json
2022-05-05 06:46:23,726 INFO    Thread-7  :23066 [dir_watcher.py:_on_file_created():244] file/dir created: /Users/korteksickiwijko/University/ai_and_robotics/product/tabata_model/tabata_model/wandb/run-20220505_064618-kugnesl2/files/wandb-metadata.json
2022-05-05 06:46:23,727 INFO    Thread-7  :23066 [dir_watcher.py:_on_file_created():244] file/dir created: /Users/korteksickiwijko/University/ai_and_robotics/product/tabata_model/tabata_model/wandb/run-20220505_064618-kugnesl2/files/media/graph
2022-05-05 06:46:23,727 INFO    Thread-7  :23066 [dir_watcher.py:_on_file_created():244] file/dir created: /Users/korteksickiwijko/University/ai_and_robotics/product/tabata_model/tabata_model/wandb/run-20220505_064618-kugnesl2/files/media
2022-05-05 06:46:23,754 DEBUG   HandlerThread:23066 [handler.py:handle_request():141] handle_request: partial_history
2022-05-05 06:46:23,755 DEBUG   HandlerThread:23066 [handler.py:handle_request():141] handle_request: partial_history
2022-05-05 06:46:23,756 DEBUG   SenderThread:23066 [sender.py:send():232] send: history
2022-05-05 06:46:23,756 DEBUG   SenderThread:23066 [sender.py:send():232] send: summary
2022-05-05 06:46:23,757 INFO    SenderThread:23066 [sender.py:_save_file():948] saving file wandb-summary.json with policy end
2022-05-05 06:46:23,757 DEBUG   SenderThread:23066 [sender.py:send():232] send: summary
2022-05-05 06:46:23,757 INFO    SenderThread:23066 [sender.py:_save_file():948] saving file wandb-summary.json with policy end
2022-05-05 06:46:23,758 DEBUG   SenderThread:23066 [sender.py:send():232] send: summary
2022-05-05 06:46:23,758 INFO    SenderThread:23066 [sender.py:_save_file():948] saving file wandb-summary.json with policy end
2022-05-05 06:46:23,791 DEBUG   HandlerThread:23066 [handler.py:handle_request():141] handle_request: partial_history
2022-05-05 06:46:23,792 DEBUG   HandlerThread:23066 [handler.py:handle_request():141] handle_request: partial_history
2022-05-05 06:46:23,792 DEBUG   SenderThread:23066 [sender.py:send():232] send: history
2022-05-05 06:46:23,792 DEBUG   SenderThread:23066 [sender.py:send():232] send: summary
2022-05-05 06:46:23,793 INFO    SenderThread:23066 [sender.py:_save_file():948] saving file wandb-summary.json with policy end
2022-05-05 06:46:23,793 DEBUG   SenderThread:23066 [sender.py:send():232] send: summary
2022-05-05 06:46:23,794 INFO    SenderThread:23066 [sender.py:_save_file():948] saving file wandb-summary.json with policy end
2022-05-05 06:46:23,794 DEBUG   SenderThread:23066 [sender.py:send():232] send: summary
2022-05-05 06:46:23,794 INFO    SenderThread:23066 [sender.py:_save_file():948] saving file wandb-summary.json with policy end
2022-05-05 06:46:23,826 DEBUG   HandlerThread:23066 [handler.py:handle_request():141] handle_request: partial_history
2022-05-05 06:46:23,826 DEBUG   HandlerThread:23066 [handler.py:handle_request():141] handle_request: partial_history
2022-05-05 06:46:23,827 DEBUG   SenderThread:23066 [sender.py:send():232] send: history
2022-05-05 06:46:23,827 DEBUG   SenderThread:23066 [sender.py:send():232] send: summary
2022-05-05 06:46:23,828 INFO    SenderThread:23066 [sender.py:_save_file():948] saving file wandb-summary.json with policy end
2022-05-05 06:46:23,828 DEBUG   SenderThread:23066 [sender.py:send():232] send: summary
2022-05-05 06:46:23,829 INFO    SenderThread:23066 [sender.py:_save_file():948] saving file wandb-summary.json with policy end
2022-05-05 06:46:23,829 DEBUG   SenderThread:23066 [sender.py:send():232] send: summary
2022-05-05 06:46:23,829 INFO    SenderThread:23066 [sender.py:_save_file():948] saving file wandb-summary.json with policy end
2022-05-05 06:46:23,861 DEBUG   HandlerThread:23066 [handler.py:handle_request():141] handle_request: partial_history
2022-05-05 06:46:23,861 DEBUG   HandlerThread:23066 [handler.py:handle_request():141] handle_request: partial_history
2022-05-05 06:46:23,862 DEBUG   SenderThread:23066 [sender.py:send():232] send: history
2022-05-05 06:46:23,862 DEBUG   SenderThread:23066 [sender.py:send():232] send: summary
2022-05-05 06:46:23,863 INFO    SenderThread:23066 [sender.py:_save_file():948] saving file wandb-summary.json with policy end
2022-05-05 06:46:23,863 DEBUG   SenderThread:23066 [sender.py:send():232] send: summary
2022-05-05 06:46:23,863 INFO    SenderThread:23066 [sender.py:_save_file():948] saving file wandb-summary.json with policy end
2022-05-05 06:46:23,864 DEBUG   SenderThread:23066 [sender.py:send():232] send: summary
2022-05-05 06:46:23,864 INFO    SenderThread:23066 [sender.py:_save_file():948] saving file wandb-summary.json with policy end
2022-05-05 06:46:23,894 DEBUG   HandlerThread:23066 [handler.py:handle_request():141] handle_request: partial_history
2022-05-05 06:46:23,895 DEBUG   HandlerThread:23066 [handler.py:handle_request():141] handle_request: partial_history
2022-05-05 06:46:23,895 DEBUG   SenderThread:23066 [sender.py:send():232] send: history
2022-05-05 06:46:23,895 DEBUG   SenderThread:23066 [sender.py:send():232] send: summary
2022-05-05 06:46:23,896 INFO    SenderThread:23066 [sender.py:_save_file():948] saving file wandb-summary.json with policy end
2022-05-05 06:46:23,896 DEBUG   SenderThread:23066 [sender.py:send():232] send: summary
2022-05-05 06:46:23,897 INFO    SenderThread:23066 [sender.py:_save_file():948] saving file wandb-summary.json with policy end
2022-05-05 06:46:23,897 DEBUG   SenderThread:23066 [sender.py:send():232] send: summary
2022-05-05 06:46:23,897 INFO    SenderThread:23066 [sender.py:_save_file():948] saving file wandb-summary.json with policy end
2022-05-05 06:46:23,928 DEBUG   HandlerThread:23066 [handler.py:handle_request():141] handle_request: partial_history
2022-05-05 06:46:23,928 DEBUG   HandlerThread:23066 [handler.py:handle_request():141] handle_request: partial_history
2022-05-05 06:46:23,929 DEBUG   SenderThread:23066 [sender.py:send():232] send: history
2022-05-05 06:46:23,929 DEBUG   SenderThread:23066 [sender.py:send():232] send: summary
2022-05-05 06:46:23,931 INFO    SenderThread:23066 [sender.py:_save_file():948] saving file wandb-summary.json with policy end
2022-05-05 06:46:23,931 DEBUG   SenderThread:23066 [sender.py:send():232] send: summary
2022-05-05 06:46:23,931 INFO    SenderThread:23066 [sender.py:_save_file():948] saving file wandb-summary.json with policy end
2022-05-05 06:46:23,931 DEBUG   SenderThread:23066 [sender.py:send():232] send: summary
2022-05-05 06:46:23,932 INFO    SenderThread:23066 [sender.py:_save_file():948] saving file wandb-summary.json with policy end
2022-05-05 06:46:23,960 DEBUG   HandlerThread:23066 [handler.py:handle_request():141] handle_request: partial_history
2022-05-05 06:46:23,966 DEBUG   HandlerThread:23066 [handler.py:handle_request():141] handle_request: partial_history
2022-05-05 06:46:23,967 DEBUG   SenderThread:23066 [sender.py:send():232] send: history
2022-05-05 06:46:23,968 DEBUG   SenderThread:23066 [sender.py:send():232] send: summary
2022-05-05 06:46:23,968 INFO    SenderThread:23066 [sender.py:_save_file():948] saving file wandb-summary.json with policy end
2022-05-05 06:46:23,969 DEBUG   SenderThread:23066 [sender.py:send():232] send: summary
2022-05-05 06:46:23,969 INFO    SenderThread:23066 [sender.py:_save_file():948] saving file wandb-summary.json with policy end
2022-05-05 06:46:23,969 DEBUG   SenderThread:23066 [sender.py:send():232] send: summary
2022-05-05 06:46:23,970 INFO    SenderThread:23066 [sender.py:_save_file():948] saving file wandb-summary.json with policy end
2022-05-05 06:46:23,999 DEBUG   HandlerThread:23066 [handler.py:handle_request():141] handle_request: partial_history
2022-05-05 06:46:24,000 DEBUG   HandlerThread:23066 [handler.py:handle_request():141] handle_request: partial_history
2022-05-05 06:46:24,001 DEBUG   SenderThread:23066 [sender.py:send():232] send: history
2022-05-05 06:46:24,001 DEBUG   SenderThread:23066 [sender.py:send():232] send: summary
2022-05-05 06:46:24,002 INFO    SenderThread:23066 [sender.py:_save_file():948] saving file wandb-summary.json with policy end
2022-05-05 06:46:24,002 DEBUG   SenderThread:23066 [sender.py:send():232] send: summary
2022-05-05 06:46:24,002 INFO    SenderThread:23066 [sender.py:_save_file():948] saving file wandb-summary.json with policy end
2022-05-05 06:46:24,003 DEBUG   SenderThread:23066 [sender.py:send():232] send: summary
2022-05-05 06:46:24,003 INFO    SenderThread:23066 [sender.py:_save_file():948] saving file wandb-summary.json with policy end
2022-05-05 06:46:24,032 DEBUG   HandlerThread:23066 [handler.py:handle_request():141] handle_request: partial_history
2022-05-05 06:46:24,032 DEBUG   HandlerThread:23066 [handler.py:handle_request():141] handle_request: partial_history
2022-05-05 06:46:24,033 DEBUG   SenderThread:23066 [sender.py:send():232] send: history
2022-05-05 06:46:24,033 DEBUG   SenderThread:23066 [sender.py:send():232] send: summary
2022-05-05 06:46:24,034 INFO    SenderThread:23066 [sender.py:_save_file():948] saving file wandb-summary.json with policy end
2022-05-05 06:46:24,034 DEBUG   SenderThread:23066 [sender.py:send():232] send: summary
2022-05-05 06:46:24,034 INFO    SenderThread:23066 [sender.py:_save_file():948] saving file wandb-summary.json with policy end
2022-05-05 06:46:24,034 DEBUG   SenderThread:23066 [sender.py:send():232] send: summary
2022-05-05 06:46:24,035 INFO    SenderThread:23066 [sender.py:_save_file():948] saving file wandb-summary.json with policy end
2022-05-05 06:46:24,064 DEBUG   HandlerThread:23066 [handler.py:handle_request():141] handle_request: partial_history
2022-05-05 06:46:24,065 DEBUG   HandlerThread:23066 [handler.py:handle_request():141] handle_request: partial_history
2022-05-05 06:46:24,066 DEBUG   SenderThread:23066 [sender.py:send():232] send: history
2022-05-05 06:46:24,066 DEBUG   SenderThread:23066 [sender.py:send():232] send: summary
2022-05-05 06:46:24,067 INFO    SenderThread:23066 [sender.py:_save_file():948] saving file wandb-summary.json with policy end
2022-05-05 06:46:24,067 DEBUG   SenderThread:23066 [sender.py:send():232] send: summary
2022-05-05 06:46:24,067 INFO    SenderThread:23066 [sender.py:_save_file():948] saving file wandb-summary.json with policy end
2022-05-05 06:46:24,068 DEBUG   SenderThread:23066 [sender.py:send():232] send: summary
2022-05-05 06:46:24,068 INFO    SenderThread:23066 [sender.py:_save_file():948] saving file wandb-summary.json with policy end
2022-05-05 06:46:24,099 DEBUG   HandlerThread:23066 [handler.py:handle_request():141] handle_request: partial_history
2022-05-05 06:46:24,103 DEBUG   HandlerThread:23066 [handler.py:handle_request():141] handle_request: partial_history
2022-05-05 06:46:24,103 DEBUG   SenderThread:23066 [sender.py:send():232] send: history
2022-05-05 06:46:24,104 DEBUG   SenderThread:23066 [sender.py:send():232] send: summary
2022-05-05 06:46:24,105 INFO    SenderThread:23066 [sender.py:_save_file():948] saving file wandb-summary.json with policy end
2022-05-05 06:46:24,105 DEBUG   SenderThread:23066 [sender.py:send():232] send: summary
2022-05-05 06:46:24,105 INFO    SenderThread:23066 [sender.py:_save_file():948] saving file wandb-summary.json with policy end
2022-05-05 06:46:24,106 DEBUG   SenderThread:23066 [sender.py:send():232] send: summary
2022-05-05 06:46:24,106 INFO    SenderThread:23066 [sender.py:_save_file():948] saving file wandb-summary.json with policy end
2022-05-05 06:46:24,134 DEBUG   HandlerThread:23066 [handler.py:handle_request():141] handle_request: partial_history
2022-05-05 06:46:24,135 DEBUG   HandlerThread:23066 [handler.py:handle_request():141] handle_request: partial_history
2022-05-05 06:46:24,135 DEBUG   SenderThread:23066 [sender.py:send():232] send: history
2022-05-05 06:46:24,136 DEBUG   SenderThread:23066 [sender.py:send():232] send: summary
2022-05-05 06:46:24,136 INFO    SenderThread:23066 [sender.py:_save_file():948] saving file wandb-summary.json with policy end
2022-05-05 06:46:24,137 DEBUG   SenderThread:23066 [sender.py:send():232] send: summary
2022-05-05 06:46:24,137 INFO    SenderThread:23066 [sender.py:_save_file():948] saving file wandb-summary.json with policy end
2022-05-05 06:46:24,137 DEBUG   SenderThread:23066 [sender.py:send():232] send: summary
2022-05-05 06:46:24,138 INFO    SenderThread:23066 [sender.py:_save_file():948] saving file wandb-summary.json with policy end
2022-05-05 06:46:24,167 DEBUG   HandlerThread:23066 [handler.py:handle_request():141] handle_request: partial_history
2022-05-05 06:46:24,167 DEBUG   HandlerThread:23066 [handler.py:handle_request():141] handle_request: partial_history
2022-05-05 06:46:24,167 DEBUG   SenderThread:23066 [sender.py:send():232] send: history
2022-05-05 06:46:24,168 DEBUG   SenderThread:23066 [sender.py:send():232] send: summary
2022-05-05 06:46:24,168 INFO    SenderThread:23066 [sender.py:_save_file():948] saving file wandb-summary.json with policy end
2022-05-05 06:46:24,176 INFO    Thread-11 :23066 [upload_job.py:push():132] Uploaded file /var/folders/c8/sgn53q312ksd7k22sg8820q80000gn/T/tmp05wgymv0wandb/1of41dzt-wandb-metadata.json
2022-05-05 06:46:24,188 DEBUG   HandlerThread:23066 [handler.py:handle_request():141] handle_request: partial_history
2022-05-05 06:46:24,188 DEBUG   HandlerThread:23066 [handler.py:handle_request():141] handle_request: partial_history
2022-05-05 06:46:24,189 DEBUG   SenderThread:23066 [sender.py:send():232] send: history
2022-05-05 06:46:24,189 DEBUG   SenderThread:23066 [sender.py:send():232] send: summary
2022-05-05 06:46:24,190 INFO    SenderThread:23066 [sender.py:_save_file():948] saving file wandb-summary.json with policy end
2022-05-05 06:46:24,210 DEBUG   HandlerThread:23066 [handler.py:handle_request():141] handle_request: partial_history
2022-05-05 06:46:24,210 DEBUG   HandlerThread:23066 [handler.py:handle_request():141] handle_request: partial_history
2022-05-05 06:46:24,210 DEBUG   SenderThread:23066 [sender.py:send():232] send: history
2022-05-05 06:46:24,211 DEBUG   SenderThread:23066 [sender.py:send():232] send: summary
2022-05-05 06:46:24,211 INFO    SenderThread:23066 [sender.py:_save_file():948] saving file wandb-summary.json with policy end
2022-05-05 06:46:24,231 DEBUG   HandlerThread:23066 [handler.py:handle_request():141] handle_request: partial_history
2022-05-05 06:46:24,231 DEBUG   HandlerThread:23066 [handler.py:handle_request():141] handle_request: partial_history
2022-05-05 06:46:24,232 DEBUG   SenderThread:23066 [sender.py:send():232] send: history
2022-05-05 06:46:24,232 DEBUG   SenderThread:23066 [sender.py:send():232] send: summary
2022-05-05 06:46:24,232 INFO    SenderThread:23066 [sender.py:_save_file():948] saving file wandb-summary.json with policy end
2022-05-05 06:46:24,252 DEBUG   HandlerThread:23066 [handler.py:handle_request():141] handle_request: partial_history
2022-05-05 06:46:24,252 DEBUG   HandlerThread:23066 [handler.py:handle_request():141] handle_request: partial_history
2022-05-05 06:46:24,252 DEBUG   SenderThread:23066 [sender.py:send():232] send: history
2022-05-05 06:46:24,253 DEBUG   SenderThread:23066 [sender.py:send():232] send: summary
2022-05-05 06:46:24,254 INFO    SenderThread:23066 [sender.py:_save_file():948] saving file wandb-summary.json with policy end
2022-05-05 06:46:24,274 DEBUG   HandlerThread:23066 [handler.py:handle_request():141] handle_request: partial_history
2022-05-05 06:46:24,275 DEBUG   HandlerThread:23066 [handler.py:handle_request():141] handle_request: partial_history
2022-05-05 06:46:24,275 DEBUG   SenderThread:23066 [sender.py:send():232] send: history
2022-05-05 06:46:24,276 DEBUG   SenderThread:23066 [sender.py:send():232] send: summary
2022-05-05 06:46:24,276 INFO    SenderThread:23066 [sender.py:_save_file():948] saving file wandb-summary.json with policy end
2022-05-05 06:46:24,314 DEBUG   HandlerThread:23066 [handler.py:handle_request():141] handle_request: partial_history
2022-05-05 06:46:24,314 DEBUG   HandlerThread:23066 [handler.py:handle_request():141] handle_request: partial_history
2022-05-05 06:46:24,315 DEBUG   SenderThread:23066 [sender.py:send():232] send: history
2022-05-05 06:46:24,315 DEBUG   SenderThread:23066 [sender.py:send():232] send: summary
2022-05-05 06:46:24,316 INFO    SenderThread:23066 [sender.py:_save_file():948] saving file wandb-summary.json with policy end
2022-05-05 06:46:24,336 DEBUG   HandlerThread:23066 [handler.py:handle_request():141] handle_request: partial_history
2022-05-05 06:46:24,336 DEBUG   HandlerThread:23066 [handler.py:handle_request():141] handle_request: partial_history
2022-05-05 06:46:24,337 DEBUG   SenderThread:23066 [sender.py:send():232] send: history
2022-05-05 06:46:24,337 DEBUG   SenderThread:23066 [sender.py:send():232] send: summary
2022-05-05 06:46:24,337 INFO    SenderThread:23066 [sender.py:_save_file():948] saving file wandb-summary.json with policy end
2022-05-05 06:46:24,357 DEBUG   HandlerThread:23066 [handler.py:handle_request():141] handle_request: partial_history
2022-05-05 06:46:24,357 DEBUG   HandlerThread:23066 [handler.py:handle_request():141] handle_request: partial_history
2022-05-05 06:46:24,358 DEBUG   SenderThread:23066 [sender.py:send():232] send: history
2022-05-05 06:46:24,358 DEBUG   SenderThread:23066 [sender.py:send():232] send: summary
2022-05-05 06:46:24,361 INFO    SenderThread:23066 [sender.py:_save_file():948] saving file wandb-summary.json with policy end
2022-05-05 06:46:24,378 DEBUG   HandlerThread:23066 [handler.py:handle_request():141] handle_request: partial_history
2022-05-05 06:46:24,378 DEBUG   HandlerThread:23066 [handler.py:handle_request():141] handle_request: partial_history
2022-05-05 06:46:24,379 DEBUG   SenderThread:23066 [sender.py:send():232] send: history
2022-05-05 06:46:24,379 DEBUG   SenderThread:23066 [sender.py:send():232] send: summary
2022-05-05 06:46:24,380 INFO    SenderThread:23066 [sender.py:_save_file():948] saving file wandb-summary.json with policy end
2022-05-05 06:46:24,400 DEBUG   HandlerThread:23066 [handler.py:handle_request():141] handle_request: partial_history
2022-05-05 06:46:24,400 DEBUG   HandlerThread:23066 [handler.py:handle_request():141] handle_request: partial_history
2022-05-05 06:46:24,401 DEBUG   SenderThread:23066 [sender.py:send():232] send: history
2022-05-05 06:46:24,401 DEBUG   SenderThread:23066 [sender.py:send():232] send: summary
2022-05-05 06:46:24,401 INFO    SenderThread:23066 [sender.py:_save_file():948] saving file wandb-summary.json with policy end
2022-05-05 06:46:24,421 DEBUG   HandlerThread:23066 [handler.py:handle_request():141] handle_request: partial_history
2022-05-05 06:46:24,421 DEBUG   HandlerThread:23066 [handler.py:handle_request():141] handle_request: partial_history
2022-05-05 06:46:24,422 DEBUG   SenderThread:23066 [sender.py:send():232] send: history
2022-05-05 06:46:24,422 DEBUG   SenderThread:23066 [sender.py:send():232] send: summary
2022-05-05 06:46:24,422 INFO    SenderThread:23066 [sender.py:_save_file():948] saving file wandb-summary.json with policy end
2022-05-05 06:46:24,442 DEBUG   HandlerThread:23066 [handler.py:handle_request():141] handle_request: partial_history
2022-05-05 06:46:24,442 DEBUG   HandlerThread:23066 [handler.py:handle_request():141] handle_request: partial_history
2022-05-05 06:46:24,442 DEBUG   SenderThread:23066 [sender.py:send():232] send: history
2022-05-05 06:46:24,443 DEBUG   SenderThread:23066 [sender.py:send():232] send: summary
2022-05-05 06:46:24,443 INFO    SenderThread:23066 [sender.py:_save_file():948] saving file wandb-summary.json with policy end
2022-05-05 06:46:24,463 DEBUG   HandlerThread:23066 [handler.py:handle_request():141] handle_request: partial_history
2022-05-05 06:46:24,464 INFO    Thread-12 :23066 [upload_job.py:push():132] Uploaded file /var/folders/c8/sgn53q312ksd7k22sg8820q80000gn/T/tmp05wgymv0wandb/3a3mdab5-media/graph/graph_summary_d0566fda85d2692a3e6c.graph.json
2022-05-05 06:46:24,464 DEBUG   HandlerThread:23066 [handler.py:handle_request():141] handle_request: partial_history
2022-05-05 06:46:24,464 DEBUG   SenderThread:23066 [sender.py:send():232] send: history
2022-05-05 06:46:24,465 DEBUG   SenderThread:23066 [sender.py:send():232] send: summary
2022-05-05 06:46:24,465 INFO    SenderThread:23066 [sender.py:_save_file():948] saving file wandb-summary.json with policy end
2022-05-05 06:46:24,484 DEBUG   HandlerThread:23066 [handler.py:handle_request():141] handle_request: partial_history
2022-05-05 06:46:24,484 DEBUG   HandlerThread:23066 [handler.py:handle_request():141] handle_request: partial_history
2022-05-05 06:46:24,485 DEBUG   SenderThread:23066 [sender.py:send():232] send: history
2022-05-05 06:46:24,485 DEBUG   SenderThread:23066 [sender.py:send():232] send: summary
2022-05-05 06:46:24,486 INFO    SenderThread:23066 [sender.py:_save_file():948] saving file wandb-summary.json with policy end
2022-05-05 06:46:24,507 DEBUG   HandlerThread:23066 [handler.py:handle_request():141] handle_request: partial_history
2022-05-05 06:46:24,507 DEBUG   HandlerThread:23066 [handler.py:handle_request():141] handle_request: partial_history
2022-05-05 06:46:24,508 DEBUG   SenderThread:23066 [sender.py:send():232] send: history
2022-05-05 06:46:24,508 DEBUG   SenderThread:23066 [sender.py:send():232] send: summary
2022-05-05 06:46:24,508 INFO    SenderThread:23066 [sender.py:_save_file():948] saving file wandb-summary.json with policy end
2022-05-05 06:46:24,528 DEBUG   HandlerThread:23066 [handler.py:handle_request():141] handle_request: partial_history
2022-05-05 06:46:24,529 DEBUG   HandlerThread:23066 [handler.py:handle_request():141] handle_request: partial_history
2022-05-05 06:46:24,529 DEBUG   SenderThread:23066 [sender.py:send():232] send: history
2022-05-05 06:46:24,530 DEBUG   SenderThread:23066 [sender.py:send():232] send: summary
2022-05-05 06:46:24,530 INFO    SenderThread:23066 [sender.py:_save_file():948] saving file wandb-summary.json with policy end
2022-05-05 06:46:24,551 DEBUG   HandlerThread:23066 [handler.py:handle_request():141] handle_request: partial_history
2022-05-05 06:46:24,551 DEBUG   HandlerThread:23066 [handler.py:handle_request():141] handle_request: partial_history
2022-05-05 06:46:24,552 DEBUG   SenderThread:23066 [sender.py:send():232] send: history
2022-05-05 06:46:24,552 DEBUG   SenderThread:23066 [sender.py:send():232] send: summary
2022-05-05 06:46:24,553 INFO    SenderThread:23066 [sender.py:_save_file():948] saving file wandb-summary.json with policy end
2022-05-05 06:46:24,573 DEBUG   HandlerThread:23066 [handler.py:handle_request():141] handle_request: partial_history
2022-05-05 06:46:24,573 DEBUG   HandlerThread:23066 [handler.py:handle_request():141] handle_request: partial_history
2022-05-05 06:46:24,574 DEBUG   SenderThread:23066 [sender.py:send():232] send: history
2022-05-05 06:46:24,574 DEBUG   SenderThread:23066 [sender.py:send():232] send: summary
2022-05-05 06:46:24,575 INFO    SenderThread:23066 [sender.py:_save_file():948] saving file wandb-summary.json with policy end
2022-05-05 06:46:24,594 DEBUG   HandlerThread:23066 [handler.py:handle_request():141] handle_request: partial_history
2022-05-05 06:46:24,594 DEBUG   HandlerThread:23066 [handler.py:handle_request():141] handle_request: partial_history
2022-05-05 06:46:24,595 DEBUG   SenderThread:23066 [sender.py:send():232] send: history
2022-05-05 06:46:24,595 DEBUG   SenderThread:23066 [sender.py:send():232] send: summary
2022-05-05 06:46:24,596 INFO    SenderThread:23066 [sender.py:_save_file():948] saving file wandb-summary.json with policy end
2022-05-05 06:46:24,616 DEBUG   HandlerThread:23066 [handler.py:handle_request():141] handle_request: partial_history
2022-05-05 06:46:24,616 DEBUG   HandlerThread:23066 [handler.py:handle_request():141] handle_request: partial_history
2022-05-05 06:46:24,616 DEBUG   SenderThread:23066 [sender.py:send():232] send: history
2022-05-05 06:46:24,617 DEBUG   SenderThread:23066 [sender.py:send():232] send: summary
2022-05-05 06:46:24,617 INFO    SenderThread:23066 [sender.py:_save_file():948] saving file wandb-summary.json with policy end
2022-05-05 06:46:24,637 DEBUG   HandlerThread:23066 [handler.py:handle_request():141] handle_request: partial_history
2022-05-05 06:46:24,638 DEBUG   HandlerThread:23066 [handler.py:handle_request():141] handle_request: partial_history
2022-05-05 06:46:24,638 DEBUG   SenderThread:23066 [sender.py:send():232] send: history
2022-05-05 06:46:24,639 DEBUG   SenderThread:23066 [sender.py:send():232] send: summary
2022-05-05 06:46:24,639 INFO    SenderThread:23066 [sender.py:_save_file():948] saving file wandb-summary.json with policy end
2022-05-05 06:46:24,660 DEBUG   HandlerThread:23066 [handler.py:handle_request():141] handle_request: partial_history
2022-05-05 06:46:24,660 DEBUG   HandlerThread:23066 [handler.py:handle_request():141] handle_request: partial_history
2022-05-05 06:46:24,661 DEBUG   SenderThread:23066 [sender.py:send():232] send: history
2022-05-05 06:46:24,661 DEBUG   SenderThread:23066 [sender.py:send():232] send: summary
2022-05-05 06:46:24,662 INFO    SenderThread:23066 [sender.py:_save_file():948] saving file wandb-summary.json with policy end
2022-05-05 06:46:24,682 DEBUG   HandlerThread:23066 [handler.py:handle_request():141] handle_request: partial_history
2022-05-05 06:46:24,682 DEBUG   HandlerThread:23066 [handler.py:handle_request():141] handle_request: partial_history
2022-05-05 06:46:24,683 DEBUG   SenderThread:23066 [sender.py:send():232] send: history
2022-05-05 06:46:24,683 DEBUG   SenderThread:23066 [sender.py:send():232] send: summary
2022-05-05 06:46:24,683 INFO    SenderThread:23066 [sender.py:_save_file():948] saving file wandb-summary.json with policy end
2022-05-05 06:46:24,703 DEBUG   HandlerThread:23066 [handler.py:handle_request():141] handle_request: partial_history
2022-05-05 06:46:24,704 DEBUG   HandlerThread:23066 [handler.py:handle_request():141] handle_request: partial_history
2022-05-05 06:46:24,704 DEBUG   SenderThread:23066 [sender.py:send():232] send: history
2022-05-05 06:46:24,704 DEBUG   SenderThread:23066 [sender.py:send():232] send: summary
2022-05-05 06:46:24,705 INFO    SenderThread:23066 [sender.py:_save_file():948] saving file wandb-summary.json with policy end
2022-05-05 06:46:24,724 DEBUG   HandlerThread:23066 [handler.py:handle_request():141] handle_request: partial_history
2022-05-05 06:46:24,725 DEBUG   HandlerThread:23066 [handler.py:handle_request():141] handle_request: partial_history
2022-05-05 06:46:24,725 DEBUG   SenderThread:23066 [sender.py:send():232] send: history
2022-05-05 06:46:24,725 DEBUG   SenderThread:23066 [sender.py:send():232] send: summary
2022-05-05 06:46:24,726 INFO    SenderThread:23066 [sender.py:_save_file():948] saving file wandb-summary.json with policy end
2022-05-05 06:46:24,727 INFO    Thread-7  :23066 [dir_watcher.py:_on_file_modified():257] file/dir modified: /Users/korteksickiwijko/University/ai_and_robotics/product/tabata_model/tabata_model/wandb/run-20220505_064618-kugnesl2/files/wandb-summary.json
2022-05-05 06:46:24,727 INFO    Thread-7  :23066 [dir_watcher.py:_on_file_created():244] file/dir created: /Users/korteksickiwijko/University/ai_and_robotics/product/tabata_model/tabata_model/wandb/run-20220505_064618-kugnesl2/files/model-best.h5
2022-05-05 06:46:24,747 DEBUG   HandlerThread:23066 [handler.py:handle_request():141] handle_request: partial_history
2022-05-05 06:46:24,755 DEBUG   HandlerThread:23066 [handler.py:handle_request():141] handle_request: partial_history
2022-05-05 06:46:24,755 DEBUG   SenderThread:23066 [sender.py:send():232] send: history
2022-05-05 06:46:24,756 DEBUG   SenderThread:23066 [sender.py:send():232] send: summary
2022-05-05 06:46:24,756 INFO    SenderThread:23066 [sender.py:_save_file():948] saving file wandb-summary.json with policy end
2022-05-05 06:46:24,768 DEBUG   HandlerThread:23066 [handler.py:handle_request():141] handle_request: partial_history
2022-05-05 06:46:24,768 DEBUG   HandlerThread:23066 [handler.py:handle_request():141] handle_request: partial_history
2022-05-05 06:46:24,772 DEBUG   SenderThread:23066 [sender.py:send():232] send: history
2022-05-05 06:46:24,775 DEBUG   SenderThread:23066 [sender.py:send():232] send: summary
2022-05-05 06:46:24,780 INFO    SenderThread:23066 [sender.py:_save_file():948] saving file wandb-summary.json with policy end
2022-05-05 06:46:24,809 DEBUG   HandlerThread:23066 [handler.py:handle_request():141] handle_request: partial_history
2022-05-05 06:46:24,809 DEBUG   SenderThread:23066 [sender.py:send():232] send: history
2022-05-05 06:46:24,810 DEBUG   SenderThread:23066 [sender.py:send():232] send: summary
2022-05-05 06:46:24,811 INFO    SenderThread:23066 [sender.py:_save_file():948] saving file wandb-summary.json with policy end
2022-05-05 06:46:24,811 DEBUG   SenderThread:23066 [sender.py:send():232] send: telemetry
2022-05-05 06:46:24,811 DEBUG   SenderThread:23066 [sender.py:send():232] send: telemetry
2022-05-05 06:46:25,306 DEBUG   SenderThread:23066 [sender.py:send():232] send: exit
2022-05-05 06:46:25,306 INFO    SenderThread:23066 [sender.py:send_exit():368] handling exit code: 0
2022-05-05 06:46:25,306 INFO    SenderThread:23066 [sender.py:send_exit():370] handling runtime: 4
2022-05-05 06:46:25,307 INFO    SenderThread:23066 [sender.py:_save_file():948] saving file wandb-summary.json with policy end
2022-05-05 06:46:25,307 INFO    SenderThread:23066 [sender.py:send_exit():376] send defer
2022-05-05 06:46:25,307 DEBUG   HandlerThread:23066 [handler.py:handle_request():141] handle_request: poll_exit
2022-05-05 06:46:25,307 DEBUG   SenderThread:23066 [sender.py:send_request():246] send_request: poll_exit
2022-05-05 06:46:25,307 DEBUG   HandlerThread:23066 [handler.py:handle_request():141] handle_request: defer
2022-05-05 06:46:25,308 INFO    HandlerThread:23066 [handler.py:handle_request_defer():164] handle defer: 0
2022-05-05 06:46:25,308 DEBUG   SenderThread:23066 [sender.py:send_request():246] send_request: defer
2022-05-05 06:46:25,308 INFO    SenderThread:23066 [sender.py:send_request_defer():385] handle sender defer: 0
2022-05-05 06:46:25,308 INFO    SenderThread:23066 [sender.py:transition_state():389] send defer: 1
2022-05-05 06:46:25,308 DEBUG   HandlerThread:23066 [handler.py:handle_request():141] handle_request: defer
2022-05-05 06:46:25,308 INFO    HandlerThread:23066 [handler.py:handle_request_defer():164] handle defer: 1
2022-05-05 06:46:25,382 DEBUG   SenderThread:23066 [sender.py:send_request():246] send_request: defer
2022-05-05 06:46:25,383 INFO    SenderThread:23066 [sender.py:send_request_defer():385] handle sender defer: 1
2022-05-05 06:46:25,383 INFO    SenderThread:23066 [sender.py:transition_state():389] send defer: 2
2022-05-05 06:46:25,383 DEBUG   SenderThread:23066 [sender.py:send():232] send: stats
2022-05-05 06:46:25,383 DEBUG   HandlerThread:23066 [handler.py:handle_request():141] handle_request: defer
2022-05-05 06:46:25,383 INFO    HandlerThread:23066 [handler.py:handle_request_defer():164] handle defer: 2
2022-05-05 06:46:25,383 DEBUG   SenderThread:23066 [sender.py:send_request():246] send_request: defer
2022-05-05 06:46:25,384 INFO    SenderThread:23066 [sender.py:send_request_defer():385] handle sender defer: 2
2022-05-05 06:46:25,384 INFO    SenderThread:23066 [sender.py:transition_state():389] send defer: 3
2022-05-05 06:46:25,384 DEBUG   HandlerThread:23066 [handler.py:handle_request():141] handle_request: defer
2022-05-05 06:46:25,384 INFO    HandlerThread:23066 [handler.py:handle_request_defer():164] handle defer: 3
2022-05-05 06:46:25,384 DEBUG   SenderThread:23066 [sender.py:send_request():246] send_request: defer
2022-05-05 06:46:25,384 INFO    SenderThread:23066 [sender.py:send_request_defer():385] handle sender defer: 3
2022-05-05 06:46:25,384 INFO    SenderThread:23066 [sender.py:transition_state():389] send defer: 4
2022-05-05 06:46:25,384 DEBUG   HandlerThread:23066 [handler.py:handle_request():141] handle_request: defer
2022-05-05 06:46:25,385 INFO    HandlerThread:23066 [handler.py:handle_request_defer():164] handle defer: 4
2022-05-05 06:46:25,385 DEBUG   SenderThread:23066 [sender.py:send():232] send: summary
2022-05-05 06:46:25,385 INFO    SenderThread:23066 [sender.py:_save_file():948] saving file wandb-summary.json with policy end
2022-05-05 06:46:25,386 DEBUG   SenderThread:23066 [sender.py:send_request():246] send_request: defer
2022-05-05 06:46:25,386 INFO    SenderThread:23066 [sender.py:send_request_defer():385] handle sender defer: 4
2022-05-05 06:46:25,386 INFO    SenderThread:23066 [sender.py:transition_state():389] send defer: 5
2022-05-05 06:46:25,386 DEBUG   HandlerThread:23066 [handler.py:handle_request():141] handle_request: defer
2022-05-05 06:46:25,386 INFO    HandlerThread:23066 [handler.py:handle_request_defer():164] handle defer: 5
2022-05-05 06:46:25,386 DEBUG   SenderThread:23066 [sender.py:send_request():246] send_request: defer
2022-05-05 06:46:25,386 INFO    SenderThread:23066 [sender.py:send_request_defer():385] handle sender defer: 5
2022-05-05 06:46:25,416 DEBUG   HandlerThread:23066 [handler.py:handle_request():141] handle_request: poll_exit
2022-05-05 06:46:25,602 INFO    Thread-13 :23066 [upload_job.py:push():132] Uploaded file /var/folders/c8/sgn53q312ksd7k22sg8820q80000gn/T/tmp05wgymv0wandb/fod6zy3s-model-best.h5
2022-05-05 06:46:25,730 INFO    Thread-7  :23066 [dir_watcher.py:_on_file_modified():257] file/dir modified: /Users/korteksickiwijko/University/ai_and_robotics/product/tabata_model/tabata_model/wandb/run-20220505_064618-kugnesl2/files/output.log
2022-05-05 06:46:25,730 INFO    Thread-7  :23066 [dir_watcher.py:_on_file_modified():257] file/dir modified: /Users/korteksickiwijko/University/ai_and_robotics/product/tabata_model/tabata_model/wandb/run-20220505_064618-kugnesl2/files/wandb-summary.json
2022-05-05 06:46:25,810 INFO    SenderThread:23066 [sender.py:transition_state():389] send defer: 6
2022-05-05 06:46:25,810 DEBUG   SenderThread:23066 [sender.py:send_request():246] send_request: poll_exit
2022-05-05 06:46:25,811 DEBUG   HandlerThread:23066 [handler.py:handle_request():141] handle_request: defer
2022-05-05 06:46:25,811 INFO    HandlerThread:23066 [handler.py:handle_request_defer():164] handle defer: 6
2022-05-05 06:46:25,811 DEBUG   SenderThread:23066 [sender.py:send_request():246] send_request: defer
2022-05-05 06:46:25,811 INFO    SenderThread:23066 [sender.py:send_request_defer():385] handle sender defer: 6
2022-05-05 06:46:25,812 INFO    SenderThread:23066 [dir_watcher.py:finish():312] shutting down directory watcher
2022-05-05 06:46:25,916 DEBUG   HandlerThread:23066 [handler.py:handle_request():141] handle_request: poll_exit
2022-05-05 06:46:26,735 INFO    SenderThread:23066 [dir_watcher.py:_on_file_modified():257] file/dir modified: /Users/korteksickiwijko/University/ai_and_robotics/product/tabata_model/tabata_model/wandb/run-20220505_064618-kugnesl2/files/config.yaml
2022-05-05 06:46:26,736 INFO    SenderThread:23066 [dir_watcher.py:finish():342] scan: /Users/korteksickiwijko/University/ai_and_robotics/product/tabata_model/tabata_model/wandb/run-20220505_064618-kugnesl2/files
2022-05-05 06:46:26,736 INFO    SenderThread:23066 [dir_watcher.py:finish():356] scan save: /Users/korteksickiwijko/University/ai_and_robotics/product/tabata_model/tabata_model/wandb/run-20220505_064618-kugnesl2/files/requirements.txt requirements.txt
2022-05-05 06:46:26,736 INFO    SenderThread:23066 [dir_watcher.py:finish():356] scan save: /Users/korteksickiwijko/University/ai_and_robotics/product/tabata_model/tabata_model/wandb/run-20220505_064618-kugnesl2/files/output.log output.log
2022-05-05 06:46:26,738 INFO    SenderThread:23066 [dir_watcher.py:finish():356] scan save: /Users/korteksickiwijko/University/ai_and_robotics/product/tabata_model/tabata_model/wandb/run-20220505_064618-kugnesl2/files/config.yaml config.yaml
2022-05-05 06:46:26,741 INFO    SenderThread:23066 [dir_watcher.py:finish():356] scan save: /Users/korteksickiwijko/University/ai_and_robotics/product/tabata_model/tabata_model/wandb/run-20220505_064618-kugnesl2/files/wandb-summary.json wandb-summary.json
2022-05-05 06:46:26,745 INFO    SenderThread:23066 [dir_watcher.py:finish():356] scan save: /Users/korteksickiwijko/University/ai_and_robotics/product/tabata_model/tabata_model/wandb/run-20220505_064618-kugnesl2/files/wandb-metadata.json wandb-metadata.json
2022-05-05 06:46:26,745 INFO    SenderThread:23066 [dir_watcher.py:finish():356] scan save: /Users/korteksickiwijko/University/ai_and_robotics/product/tabata_model/tabata_model/wandb/run-20220505_064618-kugnesl2/files/model-best.h5 model-best.h5
2022-05-05 06:46:26,750 INFO    SenderThread:23066 [dir_watcher.py:finish():356] scan save: /Users/korteksickiwijko/University/ai_and_robotics/product/tabata_model/tabata_model/wandb/run-20220505_064618-kugnesl2/files/media/graph/graph_summary_d0566fda85d2692a3e6c.graph.json media/graph/graph_summary_d0566fda85d2692a3e6c.graph.json
2022-05-05 06:46:26,750 INFO    SenderThread:23066 [sender.py:transition_state():389] send defer: 7
2022-05-05 06:46:26,750 DEBUG   SenderThread:23066 [sender.py:send_request():246] send_request: poll_exit
2022-05-05 06:46:26,751 DEBUG   HandlerThread:23066 [handler.py:handle_request():141] handle_request: defer
2022-05-05 06:46:26,751 INFO    HandlerThread:23066 [handler.py:handle_request_defer():164] handle defer: 7
2022-05-05 06:46:26,751 DEBUG   SenderThread:23066 [sender.py:send_request():246] send_request: defer
2022-05-05 06:46:26,751 INFO    SenderThread:23066 [sender.py:send_request_defer():385] handle sender defer: 7
2022-05-05 06:46:26,751 INFO    SenderThread:23066 [file_pusher.py:finish():145] shutting down file pusher
2022-05-05 06:46:26,856 DEBUG   HandlerThread:23066 [handler.py:handle_request():141] handle_request: poll_exit
2022-05-05 06:46:26,857 DEBUG   SenderThread:23066 [sender.py:send_request():246] send_request: poll_exit
2022-05-05 06:46:26,963 DEBUG   HandlerThread:23066 [handler.py:handle_request():141] handle_request: poll_exit
2022-05-05 06:46:26,963 DEBUG   SenderThread:23066 [sender.py:send_request():246] send_request: poll_exit
2022-05-05 06:46:27,066 DEBUG   HandlerThread:23066 [handler.py:handle_request():141] handle_request: poll_exit
2022-05-05 06:46:27,066 DEBUG   SenderThread:23066 [sender.py:send_request():246] send_request: poll_exit
2022-05-05 06:46:27,172 DEBUG   HandlerThread:23066 [handler.py:handle_request():141] handle_request: poll_exit
2022-05-05 06:46:27,172 DEBUG   SenderThread:23066 [sender.py:send_request():246] send_request: poll_exit
2022-05-05 06:46:27,279 DEBUG   HandlerThread:23066 [handler.py:handle_request():141] handle_request: poll_exit
2022-05-05 06:46:27,279 DEBUG   SenderThread:23066 [sender.py:send_request():246] send_request: poll_exit
2022-05-05 06:46:27,385 DEBUG   HandlerThread:23066 [handler.py:handle_request():141] handle_request: poll_exit
2022-05-05 06:46:27,386 DEBUG   SenderThread:23066 [sender.py:send_request():246] send_request: poll_exit
2022-05-05 06:46:27,487 DEBUG   HandlerThread:23066 [handler.py:handle_request():141] handle_request: poll_exit
2022-05-05 06:46:27,487 DEBUG   SenderThread:23066 [sender.py:send_request():246] send_request: poll_exit
2022-05-05 06:46:27,591 DEBUG   HandlerThread:23066 [handler.py:handle_request():141] handle_request: poll_exit
2022-05-05 06:46:27,591 DEBUG   SenderThread:23066 [sender.py:send_request():246] send_request: poll_exit
2022-05-05 06:46:27,690 INFO    Thread-16 :23066 [upload_job.py:push():132] Uploaded file /Users/korteksickiwijko/University/ai_and_robotics/product/tabata_model/tabata_model/wandb/run-20220505_064618-kugnesl2/files/config.yaml
2022-05-05 06:46:27,690 INFO    Thread-15 :23066 [upload_job.py:push():132] Uploaded file /Users/korteksickiwijko/University/ai_and_robotics/product/tabata_model/tabata_model/wandb/run-20220505_064618-kugnesl2/files/output.log
2022-05-05 06:46:27,691 INFO    Thread-14 :23066 [upload_job.py:push():132] Uploaded file /Users/korteksickiwijko/University/ai_and_robotics/product/tabata_model/tabata_model/wandb/run-20220505_064618-kugnesl2/files/requirements.txt
2022-05-05 06:46:27,691 INFO    Thread-17 :23066 [upload_job.py:push():132] Uploaded file /Users/korteksickiwijko/University/ai_and_robotics/product/tabata_model/tabata_model/wandb/run-20220505_064618-kugnesl2/files/wandb-summary.json
2022-05-05 06:46:27,696 DEBUG   HandlerThread:23066 [handler.py:handle_request():141] handle_request: poll_exit
2022-05-05 06:46:27,696 DEBUG   SenderThread:23066 [sender.py:send_request():246] send_request: poll_exit
2022-05-05 06:46:27,799 DEBUG   HandlerThread:23066 [handler.py:handle_request():141] handle_request: poll_exit
2022-05-05 06:46:27,800 DEBUG   SenderThread:23066 [sender.py:send_request():246] send_request: poll_exit
2022-05-05 06:46:27,892 INFO    Thread-6 (_thread_body):23066 [sender.py:transition_state():389] send defer: 8
2022-05-05 06:46:27,892 DEBUG   HandlerThread:23066 [handler.py:handle_request():141] handle_request: defer
2022-05-05 06:46:27,892 INFO    HandlerThread:23066 [handler.py:handle_request_defer():164] handle defer: 8
2022-05-05 06:46:27,892 DEBUG   SenderThread:23066 [sender.py:send_request():246] send_request: defer
2022-05-05 06:46:27,893 INFO    SenderThread:23066 [sender.py:send_request_defer():385] handle sender defer: 8
2022-05-05 06:46:27,903 DEBUG   HandlerThread:23066 [handler.py:handle_request():141] handle_request: poll_exit
2022-05-05 06:46:28,569 INFO    SenderThread:23066 [sender.py:transition_state():389] send defer: 9
2022-05-05 06:46:28,569 DEBUG   SenderThread:23066 [sender.py:send_request():246] send_request: poll_exit
2022-05-05 06:46:28,570 DEBUG   HandlerThread:23066 [handler.py:handle_request():141] handle_request: defer
2022-05-05 06:46:28,570 INFO    HandlerThread:23066 [handler.py:handle_request_defer():164] handle defer: 9
2022-05-05 06:46:28,570 DEBUG   SenderThread:23066 [sender.py:send_request():246] send_request: defer
2022-05-05 06:46:28,570 INFO    SenderThread:23066 [sender.py:send_request_defer():385] handle sender defer: 9
2022-05-05 06:46:28,570 INFO    SenderThread:23066 [sender.py:transition_state():389] send defer: 10
2022-05-05 06:46:28,570 DEBUG   SenderThread:23066 [sender.py:send():232] send: final
2022-05-05 06:46:28,571 DEBUG   SenderThread:23066 [sender.py:send():232] send: footer
2022-05-05 06:46:28,571 DEBUG   HandlerThread:23066 [handler.py:handle_request():141] handle_request: defer
2022-05-05 06:46:28,571 INFO    HandlerThread:23066 [handler.py:handle_request_defer():164] handle defer: 10
2022-05-05 06:46:28,571 DEBUG   SenderThread:23066 [sender.py:send_request():246] send_request: defer
2022-05-05 06:46:28,571 INFO    SenderThread:23066 [sender.py:send_request_defer():385] handle sender defer: 10
2022-05-05 06:46:28,673 DEBUG   HandlerThread:23066 [handler.py:handle_request():141] handle_request: poll_exit
2022-05-05 06:46:28,673 DEBUG   SenderThread:23066 [sender.py:send_request():246] send_request: poll_exit
2022-05-05 06:46:28,673 INFO    SenderThread:23066 [file_pusher.py:join():150] waiting for file pusher
2022-05-05 06:46:29,255 DEBUG   HandlerThread:23066 [handler.py:handle_request():141] handle_request: sampled_history
2022-05-05 06:46:29,257 DEBUG   HandlerThread:23066 [handler.py:handle_request():141] handle_request: get_summary
2022-05-05 06:46:29,258 DEBUG   HandlerThread:23066 [handler.py:handle_request():141] handle_request: shutdown
2022-05-05 06:46:29,258 INFO    HandlerThread:23066 [handler.py:finish():806] shutting down handler
2022-05-05 06:46:29,571 INFO    WriterThread:23066 [datastore.py:close():279] close: /Users/korteksickiwijko/University/ai_and_robotics/product/tabata_model/tabata_model/wandb/run-20220505_064618-kugnesl2/run-kugnesl2.wandb
2022-05-05 06:46:30,153 INFO    SenderThread:23066 [sender.py:finish():1110] shutting down sender
2022-05-05 06:46:30,153 INFO    SenderThread:23066 [file_pusher.py:finish():145] shutting down file pusher
2022-05-05 06:46:30,153 INFO    SenderThread:23066 [file_pusher.py:join():150] waiting for file pusher
2022-05-05 06:46:30,157 INFO    MainThread:23066 [internal.py:handle_exit():80] Internal process exited
