Epoch 1/60
2/2 [==============================] - 1s 216ms/step - loss: 1.0986 - accuracy: 0.3421 - val_loss: 1.0986 - val_accuracy: 0.3000 - _timestamp: 1651729810.0000 - _runtime: 9.0000
Epoch 2/60
2/2 [==============================] - 0s 38ms/step - loss: 1.0986 - accuracy: 0.3421 - val_loss: 1.0986 - val_accuracy: 0.3000 - _timestamp: 1651729810.0000 - _runtime: 9.0000
Epoch 3/60
2/2 [==============================] - 0s 30ms/step - loss: 1.0986 - accuracy: 0.3421 - val_loss: 1.0986 - val_accuracy: 0.3000 - _timestamp: 1651729810.0000 - _runtime: 9.0000
Epoch 4/60
2/2 [==============================] - 0s 29ms/step - loss: 1.0986 - accuracy: 0.3421 - val_loss: 1.0986 - val_accuracy: 0.3000 - _timestamp: 1651729810.0000 - _runtime: 9.0000
Epoch 5/60
2/2 [==============================] - 0s 29ms/step - loss: 1.0986 - accuracy: 0.3421 - val_loss: 1.0986 - val_accuracy: 0.3000 - _timestamp: 1651729810.0000 - _runtime: 9.0000
Epoch 6/60
2/2 [==============================] - 0s 29ms/step - loss: 1.0986 - accuracy: 0.3421 - val_loss: 1.0986 - val_accuracy: 0.3000 - _timestamp: 1651729810.0000 - _runtime: 9.0000
Epoch 7/60
2/2 [==============================] - 0s 30ms/step - loss: 1.0986 - accuracy: 0.3421 - val_loss: 1.0986 - val_accuracy: 0.3000 - _timestamp: 1651729810.0000 - _runtime: 9.0000
Epoch 8/60
2/2 [==============================] - 0s 29ms/step - loss: 1.0986 - accuracy: 0.3421 - val_loss: 1.0986 - val_accuracy: 0.3000 - _timestamp: 1651729810.0000 - _runtime: 9.0000
Epoch 9/60
2/2 [==============================] - 0s 29ms/step - loss: 1.0986 - accuracy: 0.3421 - val_loss: 1.0986 - val_accuracy: 0.3000 - _timestamp: 1651729810.0000 - _runtime: 9.0000
Epoch 10/60
2/2 [==============================] - 0s 31ms/step - loss: 1.0986 - accuracy: 0.3421 - val_loss: 1.0986 - val_accuracy: 0.3000 - _timestamp: 1651729810.0000 - _runtime: 9.0000
Epoch 11/60
2/2 [==============================] - 0s 29ms/step - loss: 1.0986 - accuracy: 0.3421 - val_loss: 1.0986 - val_accuracy: 0.3000 - _timestamp: 1651729810.0000 - _runtime: 9.0000
Epoch 12/60
2/2 [==============================] - 0s 29ms/step - loss: 1.0986 - accuracy: 0.3421 - val_loss: 1.0986 - val_accuracy: 0.3000 - _timestamp: 1651729810.0000 - _runtime: 9.0000
Epoch 13/60
2/2 [==============================] - 0s 30ms/step - loss: 1.0986 - accuracy: 0.3421 - val_loss: 1.0986 - val_accuracy: 0.3000 - _timestamp: 1651729810.0000 - _runtime: 9.0000
Epoch 14/60
2/2 [==============================] - 0s 33ms/step - loss: 1.0986 - accuracy: 0.3421 - val_loss: 1.0986 - val_accuracy: 0.3000 - _timestamp: 1651729810.0000 - _runtime: 9.0000
Epoch 15/60
2/2 [==============================] - 0s 33ms/step - loss: 1.0986 - accuracy: 0.3421 - val_loss: 1.0986 - val_accuracy: 0.3000 - _timestamp: 1651729810.0000 - _runtime: 9.0000
Epoch 16/60
2/2 [==============================] - 0s 34ms/step - loss: 1.0986 - accuracy: 0.3421 - val_loss: 1.0986 - val_accuracy: 0.3000 - _timestamp: 1651729810.0000 - _runtime: 9.0000
Epoch 17/60
2/2 [==============================] - 0s 34ms/step - loss: 1.0986 - accuracy: 0.3421 - val_loss: 1.0986 - val_accuracy: 0.3000 - _timestamp: 1651729810.0000 - _runtime: 9.0000
Epoch 18/60
2/2 [==============================] - 0s 35ms/step - loss: 1.0986 - accuracy: 0.3421 - val_loss: 1.0986 - val_accuracy: 0.3000 - _timestamp: 1651729810.0000 - _runtime: 9.0000
Epoch 19/60
2/2 [==============================] - 0s 33ms/step - loss: 1.0986 - accuracy: 0.3421 - val_loss: 1.0986 - val_accuracy: 0.3000 - _timestamp: 1651729810.0000 - _runtime: 9.0000
Epoch 20/60
2/2 [==============================] - 0s 32ms/step - loss: 1.0986 - accuracy: 0.3421 - val_loss: 1.0986 - val_accuracy: 0.3000 - _timestamp: 1651729810.0000 - _runtime: 9.0000
Epoch 21/60
2/2 [==============================] - 0s 32ms/step - loss: 1.0986 - accuracy: 0.3421 - val_loss: 1.0986 - val_accuracy: 0.3000 - _timestamp: 1651729810.0000 - _runtime: 9.0000
Epoch 22/60
2/2 [==============================] - 0s 31ms/step - loss: 1.0986 - accuracy: 0.3421 - val_loss: 1.0986 - val_accuracy: 0.3000 - _timestamp: 1651729810.0000 - _runtime: 9.0000
Epoch 23/60
2/2 [==============================] - 0s 28ms/step - loss: 1.0986 - accuracy: 0.3421 - val_loss: 1.0986 - val_accuracy: 0.3000 - _timestamp: 1651729811.0000 - _runtime: 10.0000
Epoch 24/60
2/2 [==============================] - 0s 28ms/step - loss: 1.0986 - accuracy: 0.3421 - val_loss: 1.0986 - val_accuracy: 0.3000 - _timestamp: 1651729811.0000 - _runtime: 10.0000
Epoch 25/60
2/2 [==============================] - 0s 29ms/step - loss: 1.0986 - accuracy: 0.3421 - val_loss: 1.0986 - val_accuracy: 0.3000 - _timestamp: 1651729811.0000 - _runtime: 10.0000
Epoch 26/60
2/2 [==============================] - 0s 28ms/step - loss: 1.0986 - accuracy: 0.3421 - val_loss: 1.0986 - val_accuracy: 0.3000 - _timestamp: 1651729811.0000 - _runtime: 10.0000
Epoch 27/60
2/2 [==============================] - 0s 28ms/step - loss: 1.0986 - accuracy: 0.3421 - val_loss: 1.0986 - val_accuracy: 0.3000 - _timestamp: 1651729811.0000 - _runtime: 10.0000
Epoch 28/60
2/2 [==============================] - 0s 29ms/step - loss: 1.0986 - accuracy: 0.3421 - val_loss: 1.0986 - val_accuracy: 0.3000 - _timestamp: 1651729811.0000 - _runtime: 10.0000
Epoch 29/60
2/2 [==============================] - 0s 28ms/step - loss: 1.0986 - accuracy: 0.3421 - val_loss: 1.0986 - val_accuracy: 0.3000 - _timestamp: 1651729811.0000 - _runtime: 10.0000
Epoch 30/60
2/2 [==============================] - 0s 28ms/step - loss: 1.0986 - accuracy: 0.3421 - val_loss: 1.0986 - val_accuracy: 0.3000 - _timestamp: 1651729811.0000 - _runtime: 10.0000
Epoch 31/60
2/2 [==============================] - 0s 28ms/step - loss: 1.0986 - accuracy: 0.3421 - val_loss: 1.0986 - val_accuracy: 0.3000 - _timestamp: 1651729811.0000 - _runtime: 10.0000
Epoch 32/60
2/2 [==============================] - 0s 28ms/step - loss: 1.0986 - accuracy: 0.3421 - val_loss: 1.0986 - val_accuracy: 0.3000 - _timestamp: 1651729811.0000 - _runtime: 10.0000
Epoch 33/60
2/2 [==============================] - 0s 28ms/step - loss: 1.0986 - accuracy: 0.3421 - val_loss: 1.0986 - val_accuracy: 0.3000 - _timestamp: 1651729811.0000 - _runtime: 10.0000
Epoch 34/60
2/2 [==============================] - 0s 29ms/step - loss: 1.0986 - accuracy: 0.3421 - val_loss: 1.0986 - val_accuracy: 0.3000 - _timestamp: 1651729811.0000 - _runtime: 10.0000
Epoch 35/60
2/2 [==============================] - 0s 41ms/step - loss: 1.0986 - accuracy: 0.3421 - val_loss: 1.0986 - val_accuracy: 0.3000 - _timestamp: 1651729811.0000 - _runtime: 10.0000
Epoch 36/60
2/2 [==============================] - 0s 43ms/step - loss: 1.0986 - accuracy: 0.3421 - val_loss: 1.0986 - val_accuracy: 0.3000 - _timestamp: 1651729811.0000 - _runtime: 10.0000
Epoch 37/60
2/2 [==============================] - 0s 41ms/step - loss: 1.0986 - accuracy: 0.3421 - val_loss: 1.0986 - val_accuracy: 0.3000 - _timestamp: 1651729811.0000 - _runtime: 10.0000
Epoch 38/60
2/2 [==============================] - 0s 34ms/step - loss: 1.0986 - accuracy: 0.3421 - val_loss: 1.0986 - val_accuracy: 0.3000 - _timestamp: 1651729811.0000 - _runtime: 10.0000
Epoch 39/60
2/2 [==============================] - 0s 32ms/step - loss: 1.0986 - accuracy: 0.3421 - val_loss: 1.0986 - val_accuracy: 0.3000 - _timestamp: 1651729811.0000 - _runtime: 10.0000
Epoch 40/60
2/2 [==============================] - 0s 36ms/step - loss: 1.0986 - accuracy: 0.3421 - val_loss: 1.0986 - val_accuracy: 0.3000 - _timestamp: 1651729811.0000 - _runtime: 10.0000
Epoch 41/60
2/2 [==============================] - 0s 32ms/step - loss: 1.0986 - accuracy: 0.3421 - val_loss: 1.0986 - val_accuracy: 0.3000 - _timestamp: 1651729811.0000 - _runtime: 10.0000
Epoch 42/60
2/2 [==============================] - 0s 33ms/step - loss: 1.0986 - accuracy: 0.3421 - val_loss: 1.0986 - val_accuracy: 0.3000 - _timestamp: 1651729811.0000 - _runtime: 10.0000
Epoch 43/60
2/2 [==============================] - 0s 32ms/step - loss: 1.0986 - accuracy: 0.3421 - val_loss: 1.0986 - val_accuracy: 0.3000 - _timestamp: 1651729811.0000 - _runtime: 10.0000
Epoch 44/60
2/2 [==============================] - 0s 32ms/step - loss: 1.0986 - accuracy: 0.3421 - val_loss: 1.0986 - val_accuracy: 0.3000 - _timestamp: 1651729811.0000 - _runtime: 10.0000
Epoch 45/60
2/2 [==============================] - 0s 32ms/step - loss: 1.0986 - accuracy: 0.3421 - val_loss: 1.0986 - val_accuracy: 0.3000 - _timestamp: 1651729811.0000 - _runtime: 10.0000
Epoch 46/60
2/2 [==============================] - 0s 32ms/step - loss: 1.0986 - accuracy: 0.3421 - val_loss: 1.0986 - val_accuracy: 0.3000 - _timestamp: 1651729811.0000 - _runtime: 10.0000
Epoch 47/60
2/2 [==============================] - 0s 32ms/step - loss: 1.0986 - accuracy: 0.3421 - val_loss: 1.0986 - val_accuracy: 0.3000 - _timestamp: 1651729811.0000 - _runtime: 10.0000
Epoch 48/60
2/2 [==============================] - 0s 35ms/step - loss: 1.0986 - accuracy: 0.3421 - val_loss: 1.0986 - val_accuracy: 0.3000 - _timestamp: 1651729811.0000 - _runtime: 10.0000
Epoch 49/60
2/2 [==============================] - 0s 47ms/step - loss: 1.0986 - accuracy: 0.3421 - val_loss: 1.0986 - val_accuracy: 0.3000 - _timestamp: 1651729812.0000 - _runtime: 11.0000
Epoch 50/60
2/2 [==============================] - 0s 37ms/step - loss: 1.0986 - accuracy: 0.3421 - val_loss: 1.0986 - val_accuracy: 0.3000 - _timestamp: 1651729812.0000 - _runtime: 11.0000
Epoch 51/60
2/2 [==============================] - 0s 33ms/step - loss: 1.0986 - accuracy: 0.3421 - val_loss: 1.0986 - val_accuracy: 0.3000 - _timestamp: 1651729812.0000 - _runtime: 11.0000
Epoch 52/60
2/2 [==============================] - 0s 35ms/step - loss: 1.0986 - accuracy: 0.3421 - val_loss: 1.0986 - val_accuracy: 0.3000 - _timestamp: 1651729812.0000 - _runtime: 11.0000
Epoch 53/60
2/2 [==============================] - 0s 35ms/step - loss: 1.0986 - accuracy: 0.3421 - val_loss: 1.0986 - val_accuracy: 0.3000 - _timestamp: 1651729812.0000 - _runtime: 11.0000
Epoch 54/60
2/2 [==============================] - 0s 31ms/step - loss: 1.0986 - accuracy: 0.3421 - val_loss: 1.0986 - val_accuracy: 0.3000 - _timestamp: 1651729812.0000 - _runtime: 11.0000
Epoch 55/60
2/2 [==============================] - 0s 32ms/step - loss: 1.0986 - accuracy: 0.3421 - val_loss: 1.0986 - val_accuracy: 0.3000 - _timestamp: 1651729812.0000 - _runtime: 11.0000
Epoch 56/60
2/2 [==============================] - 0s 30ms/step - loss: 1.0986 - accuracy: 0.3421 - val_loss: 1.0986 - val_accuracy: 0.3000 - _timestamp: 1651729812.0000 - _runtime: 11.0000
Epoch 57/60
2/2 [==============================] - 0s 29ms/step - loss: 1.0986 - accuracy: 0.3421 - val_loss: 1.0986 - val_accuracy: 0.3000 - _timestamp: 1651729812.0000 - _runtime: 11.0000
Epoch 58/60
2/2 [==============================] - 0s 29ms/step - loss: 1.0986 - accuracy: 0.3421 - val_loss: 1.0986 - val_accuracy: 0.3000 - _timestamp: 1651729812.0000 - _runtime: 11.0000
Epoch 59/60
2/2 [==============================] - 0s 29ms/step - loss: 1.0986 - accuracy: 0.3421 - val_loss: 1.0986 - val_accuracy: 0.3000 - _timestamp: 1651729812.0000 - _runtime: 11.0000
Epoch 60/60
2/2 [==============================] - 0s 29ms/step - loss: 1.0986 - accuracy: 0.3421 - val_loss: 1.0986 - val_accuracy: 0.3000 - _timestamp: 1651729812.0000 - _runtime: 11.0000
1/1 [==============================] - 0s 42ms/step - loss: 1.0986 - accuracy: 0.3333