{
    "os": "macOS-12.3.1-x86_64-i386-64bit",
    "python": "3.10.0",
    "heartbeatAt": "2022-05-05T05:52:45.183005",
    "startedAt": "2022-05-05T05:52:38.114568",
    "docker": null,
    "cpu_count": 16,
    "cuda": null,
    "args": null,
    "state": "running",
    "program": "tabata_model/wnb_model_training.ipynb",
    "root": "/Users/korteksickiwijko/University/ai_and_robotics/product/tabata_model",
    "host": "MacBook-Pro-3.local",
    "username": "korteksickiwijko",
    "executable": "/Users/korteksickiwijko/University/ai_and_robotics/product/tabata_model/.venv/bin/python"
}
